<?xml version="1.0" encoding="UTF-8" ?>
<!DOCTYPE svg PUBLIC "-//W3C//DTD SVG 1.1//EN" "http://www.w3.org/Graphics/SVG/1.1/DTD/svg11.dtd">
<svg width="275pt" height="239pt" viewBox="0 0 275 239" version="1.1" xmlns="http://www.w3.org/2000/svg">
<g id="#ffffffff">
</g>
<g id="#f4d620ff">
<path fill="#f4d620" opacity="1.00" d=" M 20.93 24.62 C 44.11 19.06 68.37 18.16 91.92 21.82 C 126.36 27.31 159.88 42.53 184.43 67.66 C 201.68 85.39 214.22 109.22 213.80 134.42 C 212.15 112.97 199.90 93.93 184.91 79.17 C 183.21 77.51 181.47 75.90 179.71 74.32 C 177.79 72.62 175.81 70.99 173.81 69.39 C 171.32 67.41 168.77 65.51 166.17 63.66 C 162.70 61.20 159.11 58.91 155.47 56.71 C 154.31 55.99 153.15 55.27 152.00 54.54 C 147.98 49.12 142.85 44.58 137.37 40.69 C 130.96 37.04 124.88 32.61 117.78 30.38 C 112.80 28.85 107.91 26.82 102.67 26.41 C 95.43 25.83 88.20 25.04 80.92 25.02 C 78.72 22.60 75.43 20.47 72.04 21.59 C 69.19 22.23 67.37 24.63 66.14 27.10 C 52.21 25.51 38.17 24.34 24.15 24.73 C 23.07 24.74 22.00 24.67 20.93 24.62 Z" />
<path fill="#f4d620" opacity="1.00" d=" M 175.47 116.36 C 176.25 111.40 174.20 106.41 175.56 101.49 C 180.86 108.80 185.31 116.74 188.58 125.15 C 196.35 144.73 197.45 166.47 193.85 187.10 C 187.45 193.20 178.88 196.68 170.33 198.56 C 164.27 199.54 158.11 198.86 152.01 199.07 C 142.43 199.39 133.04 196.45 124.36 192.62 C 134.74 186.66 145.70 180.77 152.92 170.89 C 161.12 162.31 167.16 151.76 170.70 140.44 C 173.85 132.79 174.30 124.45 175.47 116.36 Z" />
</g>
<g id="#fffcf2ff">
<path fill="#fffcf2" opacity="1.00" d=" M 66.14 27.10 C 67.37 24.63 69.19 22.23 72.04 21.59 C 75.43 20.47 78.72 22.60 80.92 25.02 C 81.40 26.56 81.78 28.12 82.12 29.69 C 81.50 33.58 78.52 36.48 74.76 37.44 C 72.49 36.95 70.30 36.14 68.13 35.31 C 66.92 32.74 65.65 30.03 66.14 27.10 M 72.44 24.51 C 69.42 25.44 67.93 29.40 69.82 32.00 C 71.92 35.74 78.55 34.47 78.87 30.09 C 79.66 26.53 75.84 23.23 72.44 24.51 Z" />
</g>
<g id="#231e1fff">
<path fill="#231e1f" opacity="1.00" d=" M 72.44 24.51 C 75.84 23.23 79.66 26.53 78.87 30.09 C 78.55 34.47 71.92 35.74 69.82 32.00 C 67.93 29.40 69.42 25.44 72.44 24.51 Z" />
</g>
<g id="#929397ff">
<path fill="#929397" opacity="1.00" d=" M 24.15 24.73 C 38.17 24.34 52.21 25.51 66.14 27.10 C 65.65 30.03 66.92 32.74 68.13 35.31 C 66.99 34.91 65.83 34.53 64.66 34.20 C 61.00 33.20 57.33 32.21 53.65 31.31 C 44.77 29.09 35.82 27.01 26.73 25.87 C 26.08 25.59 24.79 25.02 24.15 24.73 Z" />
<path fill="#929397" opacity="1.00" d=" M 150.58 34.32 C 154.42 33.65 158.31 34.35 162.14 34.77 C 168.66 35.69 175.29 36.41 181.55 38.59 C 179.61 41.90 177.68 45.21 175.61 48.43 C 167.68 43.04 159.34 38.23 150.58 34.32 Z" />
<path fill="#929397" opacity="1.00" d=" M 46.42 96.64 C 47.82 89.93 49.28 83.19 51.52 76.71 C 53.05 83.11 54.37 89.56 55.50 96.04 C 52.47 96.22 49.44 96.42 46.42 96.64 Z" />
</g>
<g id="#f4d838ff">
<path fill="#f4d838" opacity="1.00" d=" M 80.92 25.02 C 88.20 25.04 95.43 25.83 102.67 26.41 C 107.91 26.82 112.80 28.85 117.78 30.38 C 124.88 32.61 130.96 37.04 137.37 40.69 C 142.85 44.58 147.98 49.12 152.00 54.54 C 149.36 53.13 146.70 51.78 144.06 50.39 C 139.90 48.24 135.63 46.30 131.35 44.41 C 125.89 42.13 120.36 40.03 114.77 38.11 C 104.09 34.55 93.17 31.80 82.12 29.69 C 81.78 28.12 81.40 26.56 80.92 25.02 Z" />
<path fill="#f4d838" opacity="1.00" d=" M 163.87 87.68 L 164.91 88.73 C 166.93 90.80 168.83 92.98 170.69 95.20 C 172.12 96.93 173.51 98.69 174.84 100.49 C 175.02 100.74 175.38 101.24 175.56 101.49 C 174.20 106.41 176.25 111.40 175.47 116.36 C 174.30 124.45 173.85 132.79 170.70 140.44 C 167.16 151.76 161.12 162.31 152.92 170.89 C 145.70 180.77 134.74 186.66 124.36 192.62 L 124.20 192.72 C 120.82 191.15 117.44 189.53 114.34 187.45 C 117.69 185.06 121.98 184.74 125.41 182.51 C 129.81 179.65 134.20 176.69 138.12 173.17 C 141.61 169.97 145.73 167.37 148.49 163.44 C 151.33 159.52 154.59 155.86 156.76 151.50 C 161.38 142.60 165.76 133.02 165.41 122.75 C 165.78 122.65 166.53 122.43 166.90 122.33 C 166.41 115.20 167.29 108.03 166.13 100.93 C 165.93 96.41 163.23 92.26 163.87 87.68 Z" />
</g>
<g id="#f4d621ff">
<path fill="#f4d621" opacity="1.00" d=" M 26.73 25.87 C 35.82 27.01 44.77 29.09 53.65 31.31 C 50.26 34.10 45.83 35.25 42.59 38.27 C 38.21 33.09 32.88 28.78 26.73 25.87 Z" />
</g>
<g id="#919397ff">
<path fill="#919397" opacity="1.00" d=" M 82.12 29.69 C 93.17 31.80 104.09 34.55 114.77 38.11 C 112.35 42.00 111.40 46.75 107.96 49.98 C 99.01 45.88 89.81 42.32 80.51 39.10 C 78.62 38.46 76.70 37.91 74.76 37.44 C 78.52 36.48 81.50 33.58 82.12 29.69 Z" />
</g>
<g id="#f4d837ff">
<path fill="#f4d837" opacity="1.00" d=" M 53.65 31.31 C 57.33 32.21 61.00 33.20 64.66 34.20 C 58.53 37.33 51.58 38.78 45.97 42.89 C 44.85 41.34 43.72 39.80 42.59 38.27 C 45.83 35.25 50.26 34.10 53.65 31.31 Z" />
</g>
<g id="#f4dc54ff">
<path fill="#f4dc54" opacity="1.00" d=" M 64.66 34.20 C 65.83 34.53 66.99 34.91 68.13 35.31 C 70.30 36.14 72.49 36.95 74.76 37.44 C 76.70 37.91 78.62 38.46 80.51 39.10 C 80.19 39.63 79.55 40.69 79.23 41.23 C 74.64 41.88 70.00 42.42 65.68 44.19 C 65.24 44.09 64.81 43.99 64.37 43.90 C 59.82 46.20 54.68 47.22 50.69 50.62 C 49.26 47.95 47.64 45.40 45.97 42.89 C 51.58 38.78 58.53 37.33 64.66 34.20 Z" />
<path fill="#f4dc54" opacity="1.00" d=" M 152.28 76.98 C 154.39 78.74 156.44 80.56 158.48 82.41 C 160.33 84.11 162.11 85.88 163.87 87.68 C 163.23 92.26 165.93 96.41 166.13 100.93 C 167.29 108.03 166.41 115.20 166.90 122.33 C 166.53 122.43 165.78 122.65 165.41 122.75 C 165.76 133.02 161.38 142.60 156.76 151.50 C 154.59 155.86 151.33 159.52 148.49 163.44 C 145.73 167.37 141.61 169.97 138.12 173.17 C 134.20 176.69 129.81 179.65 125.41 182.51 C 121.98 184.74 117.69 185.06 114.34 187.45 L 114.19 187.54 C 111.72 186.09 109.31 184.52 107.09 182.70 C 108.46 182.06 109.91 181.62 111.38 181.31 C 111.55 180.59 111.72 179.88 111.88 179.17 C 112.26 179.46 113.02 180.04 113.40 180.33 C 119.26 177.30 125.44 174.74 130.67 170.64 C 137.43 166.21 142.46 159.72 147.32 153.39 C 152.62 143.59 158.52 133.44 158.92 122.00 C 160.06 115.35 159.58 108.64 158.77 101.99 C 158.83 97.08 156.43 92.70 155.48 87.99 C 154.96 85.29 153.31 83.05 151.81 80.84 C 151.96 79.55 152.12 78.27 152.28 76.98 Z" />
</g>
<g id="#f7df73ff">
<path fill="#f7df73" opacity="1.00" d=" M 80.51 39.10 C 89.81 42.32 99.01 45.88 107.96 49.98 C 113.32 52.37 118.53 55.07 123.68 57.87 C 128.09 60.26 132.38 62.87 136.60 65.58 C 140.66 68.20 144.59 71.01 148.41 73.96 C 149.71 74.95 151.01 75.95 152.28 76.98 C 152.12 78.27 151.96 79.55 151.81 80.84 C 153.31 83.05 154.96 85.29 155.48 87.99 C 156.43 92.70 158.83 97.08 158.77 101.99 C 159.58 108.64 160.06 115.35 158.92 122.00 C 158.52 133.44 152.62 143.59 147.32 153.39 C 142.46 159.72 137.43 166.21 130.67 170.64 C 125.44 174.74 119.26 177.30 113.40 180.33 C 113.02 180.04 112.26 179.46 111.88 179.17 C 111.72 179.88 111.55 180.59 111.38 181.31 C 109.91 181.62 108.46 182.06 107.09 182.70 L 106.87 182.79 C 102.50 179.50 98.23 176.00 94.66 171.84 C 96.77 170.82 98.80 169.57 101.09 168.98 C 109.26 168.05 116.52 163.71 123.28 159.29 C 131.81 152.21 138.53 142.95 142.69 132.69 C 146.18 126.56 143.85 119.10 146.57 112.74 C 145.62 107.89 146.17 102.78 144.05 98.18 C 142.74 91.05 139.57 84.44 135.53 78.46 C 133.64 75.36 129.79 74.26 128.04 71.03 C 124.11 64.87 117.39 61.63 110.81 59.14 C 105.69 55.99 99.71 55.25 93.96 53.99 C 87.24 52.87 80.62 55.06 73.97 55.66 C 67.42 56.09 62.41 61.03 56.07 62.29 C 54.53 58.29 52.56 54.48 50.69 50.62 C 54.68 47.22 59.82 46.20 64.37 43.90 C 64.81 43.99 65.24 44.09 65.68 44.19 C 70.00 42.42 74.64 41.88 79.23 41.23 C 79.55 40.69 80.19 39.63 80.51 39.10 Z" />
</g>
<g id="#7f8386ff">
<path fill="#7f8386" opacity="1.00" d=" M 107.96 49.98 C 111.40 46.75 112.35 42.00 114.77 38.11 C 120.36 40.03 125.89 42.13 131.35 44.41 C 129.97 45.16 127.70 45.28 127.44 47.20 C 126.36 50.82 124.97 54.33 123.68 57.87 C 118.53 55.07 113.32 52.37 107.96 49.98 Z" />
</g>
<g id="#808487ff">
<path fill="#808487" opacity="1.00" d=" M 181.55 38.59 L 181.73 38.27 C 184.71 39.26 187.68 40.25 190.68 41.17 L 190.56 41.28 C 186.40 44.24 185.42 49.56 182.09 53.20 C 179.94 51.60 177.79 50.00 175.61 48.43 C 177.68 45.21 179.61 41.90 181.55 38.59 Z" />
</g>
<g id="#707175ff">
<path fill="#707175" opacity="1.00" d=" M 182.09 53.20 C 185.42 49.56 186.40 44.24 190.56 41.28 C 193.18 42.26 195.76 43.35 198.28 44.57 C 194.45 48.96 192.03 54.28 189.47 59.44 C 187.05 57.32 184.61 55.21 182.09 53.20 Z" />
<path fill="#707175" opacity="1.00" d=" M 127.44 47.20 C 127.70 45.28 129.97 45.16 131.35 44.41 C 135.63 46.30 139.90 48.24 144.06 50.39 C 140.86 55.10 139.53 60.73 136.60 65.58 C 132.38 62.87 128.09 60.26 123.68 57.87 C 124.97 54.33 126.36 50.82 127.44 47.20 Z" />
<path fill="#707175" opacity="1.00" d=" M 44.43 105.76 C 48.65 105.96 52.92 106.17 57.07 105.17 C 57.54 108.42 58.00 111.67 58.43 114.92 C 53.16 115.92 47.59 115.73 42.60 117.90 C 43.11 113.84 43.76 109.80 44.43 105.76 Z" />
</g>
<g id="#5f6062ff">
<path fill="#5f6062" opacity="1.00" d=" M 198.28 44.57 C 200.02 45.54 201.76 46.51 203.48 47.52 C 199.55 52.42 197.47 58.44 193.77 63.48 C 192.33 62.14 190.90 60.79 189.47 59.44 C 192.03 54.28 194.45 48.96 198.28 44.57 Z" />
<path fill="#5f6062" opacity="1.00" d=" M 136.60 65.58 C 139.53 60.73 140.86 55.10 144.06 50.39 C 146.70 51.78 149.36 53.13 152.00 54.54 C 153.15 55.27 154.31 55.99 155.47 56.71 C 154.31 59.80 153.33 62.96 152.11 66.03 C 151.07 68.77 148.72 70.94 148.41 73.96 C 144.59 71.01 140.66 68.20 136.60 65.58 Z" />
<path fill="#5f6062" opacity="1.00" d=" M 42.60 117.90 C 47.59 115.73 53.16 115.92 58.43 114.92 C 58.84 117.51 59.25 120.10 59.56 122.71 C 53.78 123.40 47.92 123.39 42.19 124.45 C 42.29 122.26 42.44 120.08 42.60 117.90 Z" />
</g>
<g id="#4f4f51ff">
<path fill="#4f4f51" opacity="1.00" d=" M 203.48 47.52 C 206.12 49.24 208.68 51.06 211.07 53.10 C 207.66 59.26 203.71 65.17 201.28 71.82 L 201.21 71.99 C 198.90 69.01 196.37 66.21 193.77 63.48 C 197.47 58.44 199.55 52.42 203.48 47.52 Z" />
</g>
<g id="#f8e48dff">
<path fill="#f8e48d" opacity="1.00" d=" M 73.97 55.66 C 80.62 55.06 87.24 52.87 93.96 53.99 C 99.71 55.25 105.69 55.99 110.81 59.14 C 117.39 61.63 124.11 64.87 128.04 71.03 C 129.79 74.26 133.64 75.36 135.53 78.46 C 139.57 84.44 142.74 91.05 144.05 98.18 C 146.17 102.78 145.62 107.89 146.57 112.74 C 143.85 119.10 146.18 126.56 142.69 132.69 C 138.53 142.95 131.81 152.21 123.28 159.29 C 116.52 163.71 109.26 168.05 101.09 168.98 C 98.80 169.57 96.77 170.82 94.66 171.84 L 94.35 172.00 C 91.65 168.82 88.82 165.73 86.56 162.21 C 92.53 162.26 98.43 161.21 104.13 159.48 C 104.28 159.26 104.57 158.81 104.72 158.59 C 115.24 155.50 123.68 147.61 129.58 138.60 C 131.56 134.77 134.30 131.12 134.73 126.70 C 135.42 120.79 138.40 114.95 136.87 108.94 C 136.01 105.29 135.82 101.51 134.81 97.90 C 132.30 90.27 128.74 82.73 122.77 77.18 C 118.02 72.23 111.64 69.40 105.47 66.67 C 101.12 64.58 96.01 65.14 91.78 62.69 C 89.92 63.42 88.04 64.54 85.99 63.94 C 82.55 63.23 79.03 63.38 75.70 64.51 C 75.63 64.86 75.47 65.56 75.40 65.90 C 73.09 65.78 70.52 65.10 68.44 66.47 C 65.44 68.15 62.75 71.00 59.02 70.59 C 58.11 67.80 57.10 65.04 56.07 62.29 C 62.41 61.03 67.42 56.09 73.97 55.66 Z" />
</g>
<g id="#363435ff">
<path fill="#363435" opacity="1.00" d=" M 201.28 71.82 C 203.71 65.17 207.66 59.26 211.07 53.10 C 212.74 54.70 214.35 56.34 215.91 58.04 C 211.93 64.08 209.00 70.73 205.11 76.83 L 205.02 77.00 C 203.79 75.25 202.54 73.53 201.28 71.82 Z" />
</g>
<g id="#515153ff">
<path fill="#515153" opacity="1.00" d=" M 155.47 56.71 C 159.11 58.91 162.70 61.20 166.17 63.66 C 162.68 69.49 160.54 75.97 158.48 82.41 C 156.44 80.56 154.39 78.74 152.28 76.98 C 151.01 75.95 149.71 74.95 148.41 73.96 C 148.72 70.94 151.07 68.77 152.11 66.03 C 153.33 62.96 154.31 59.80 155.47 56.71 Z" />
</g>
<g id="#221e1fff">
<path fill="#221e1f" opacity="1.00" d=" M 205.11 76.83 C 209.00 70.73 211.93 64.08 215.91 58.04 C 221.22 64.51 224.91 72.31 226.24 80.59 C 228.10 95.40 226.01 110.82 219.26 124.22 C 219.25 116.74 218.98 109.18 216.90 101.95 C 214.57 92.93 210.26 84.56 205.11 76.83 Z" />
<path fill="#221e1f" opacity="1.00" d=" M 182.54 82.42 C 183.06 81.16 184.07 80.21 184.91 79.17 C 199.90 93.93 212.15 112.97 213.80 134.42 C 214.16 149.14 210.52 164.16 202.73 176.72 C 200.26 180.56 197.43 184.23 193.85 187.10 C 197.45 166.47 196.35 144.73 188.58 125.15 C 185.31 116.74 180.86 108.80 175.56 101.49 C 175.38 101.24 175.02 100.74 174.84 100.49 C 177.70 94.60 179.99 88.45 182.54 82.42 Z" />
<path fill="#221e1f" opacity="1.00" d=" M 46.07 143.71 C 51.96 142.09 58.11 141.76 64.19 141.67 C 67.00 149.44 71.19 156.61 75.71 163.50 C 63.20 162.78 51.33 155.18 46.07 143.71 Z" />
</g>
<g id="#f9eaabff">
<path fill="#f9eaab" opacity="1.00" d=" M 85.99 63.94 C 88.04 64.54 89.92 63.42 91.78 62.69 C 96.01 65.14 101.12 64.58 105.47 66.67 C 111.64 69.40 118.02 72.23 122.77 77.18 C 128.74 82.73 132.30 90.27 134.81 97.90 C 135.82 101.51 136.01 105.29 136.87 108.94 C 138.40 114.95 135.42 120.79 134.73 126.70 C 134.30 131.12 131.56 134.77 129.58 138.60 C 123.68 147.61 115.24 155.50 104.72 158.59 C 104.57 158.81 104.28 159.26 104.13 159.48 C 98.43 161.21 92.53 162.26 86.56 162.21 L 86.11 162.22 C 82.95 157.15 79.57 152.16 77.45 146.54 C 81.50 146.07 85.28 148.72 89.30 147.78 C 93.74 147.08 98.38 146.65 102.28 144.20 C 106.67 141.50 111.85 139.29 114.55 134.64 C 116.90 130.51 120.76 126.98 121.17 121.98 C 121.51 117.98 122.15 114.01 122.44 110.01 C 121.78 105.57 120.49 101.21 119.01 96.98 C 113.10 85.35 100.31 76.80 87.01 77.75 C 82.24 77.42 77.81 79.29 73.34 80.63 C 69.52 81.64 66.90 84.81 63.81 87.05 C 62.38 81.52 60.73 76.04 59.02 70.59 C 62.75 71.00 65.44 68.15 68.44 66.47 C 70.52 65.10 73.09 65.78 75.40 65.90 C 75.47 65.56 75.63 64.86 75.70 64.51 C 79.03 63.38 82.55 63.23 85.99 63.94 Z" />
</g>
<g id="#424246ff">
<path fill="#424246" opacity="1.00" d=" M 158.48 82.41 C 160.54 75.97 162.68 69.49 166.17 63.66 C 168.77 65.51 171.32 67.41 173.81 69.39 C 170.23 75.54 168.39 82.51 164.91 88.73 L 163.87 87.68 C 162.11 85.88 160.33 84.11 158.48 82.41 Z" />
</g>
<g id="#383738ff">
<path fill="#383738" opacity="1.00" d=" M 164.91 88.73 C 168.39 82.51 170.23 75.54 173.81 69.39 C 175.81 70.99 177.79 72.62 179.71 74.32 C 175.32 80.58 173.31 88.11 170.69 95.20 C 168.83 92.98 166.93 90.80 164.91 88.73 Z" />
</g>
<g id="#2d2c2dff">
<path fill="#2d2c2d" opacity="1.00" d=" M 170.69 95.20 C 173.31 88.11 175.32 80.58 179.71 74.32 C 181.47 75.90 183.21 77.51 184.91 79.17 C 184.07 80.21 183.06 81.16 182.54 82.42 C 179.99 88.45 177.70 94.60 174.84 100.49 C 173.51 98.69 172.12 96.93 170.69 95.20 Z" />
<path fill="#2d2c2d" opacity="1.00" d=" M 115.48 216.47 C 116.23 214.47 116.06 211.16 118.02 210.08 C 120.13 211.61 119.63 215.39 121.32 217.51 C 121.59 217.79 122.13 218.36 122.40 218.64 C 122.17 219.80 121.47 220.33 120.29 219.98 C 119.36 217.57 118.75 215.04 117.99 212.57 C 117.71 213.37 117.15 214.97 116.87 215.77 L 115.48 216.47 Z" />
</g>
<g id="#fcf2ccff">
<path fill="#fcf2cc" opacity="1.00" d=" M 73.34 80.63 C 77.81 79.29 82.24 77.42 87.01 77.75 C 100.31 76.80 113.10 85.35 119.01 96.98 C 120.49 101.21 121.78 105.57 122.44 110.01 C 122.15 114.01 121.51 117.98 121.17 121.98 C 120.76 126.98 116.90 130.51 114.55 134.64 C 111.85 139.29 106.67 141.50 102.28 144.20 C 98.38 146.65 93.74 147.08 89.30 147.78 C 85.28 148.72 81.50 146.07 77.45 146.54 L 77.10 146.54 C 74.30 139.95 71.79 133.14 70.83 126.01 C 75.32 132.84 84.18 134.47 91.79 134.80 C 91.40 134.48 90.62 133.83 90.22 133.51 C 92.23 133.33 94.22 133.00 96.15 132.42 C 96.49 132.70 97.15 133.26 97.49 133.54 C 99.69 129.75 103.49 127.48 106.45 124.41 C 107.23 121.93 107.69 119.36 108.66 116.93 C 109.03 113.45 108.92 109.88 108.46 106.41 C 107.30 103.45 105.60 100.73 104.13 97.91 C 101.95 93.32 96.29 92.85 92.61 89.94 C 87.53 90.06 82.42 90.66 77.52 92.01 C 73.23 94.27 70.80 98.75 67.17 101.83 C 65.60 97.02 64.66 92.03 63.81 87.05 C 66.90 84.81 69.52 81.64 73.34 80.63 Z" />
</g>
<g id="#fffcf3ff">
<path fill="#fffcf3" opacity="1.00" d=" M 77.52 92.01 C 82.42 90.66 87.53 90.06 92.61 89.94 C 96.29 92.85 101.95 93.32 104.13 97.91 C 105.60 100.73 107.30 103.45 108.46 106.41 C 108.92 109.88 109.03 113.45 108.66 116.93 C 107.69 119.36 107.23 121.93 106.45 124.41 C 103.49 127.48 99.69 129.75 97.49 133.54 C 97.15 133.26 96.49 132.70 96.15 132.42 C 94.22 133.00 92.23 133.33 90.22 133.51 C 90.62 133.83 91.40 134.48 91.79 134.80 C 84.18 134.47 75.32 132.84 70.83 126.01 C 68.05 119.77 68.46 112.61 67.15 105.98 C 67.15 104.66 66.13 102.93 67.17 101.83 C 70.80 98.75 73.23 94.27 77.52 92.01 Z" />
</g>
<g id="#808386ff">
<path fill="#808386" opacity="1.00" d=" M 46.42 96.64 C 49.44 96.42 52.47 96.22 55.50 96.04 C 55.99 99.09 56.50 102.13 57.07 105.17 C 52.92 106.17 48.65 105.96 44.43 105.76 C 45.09 102.74 45.69 99.70 46.23 96.65 L 46.42 96.64 Z" />
</g>
<g id="#505052ff">
<path fill="#505052" opacity="1.00" d=" M 42.19 124.45 C 47.92 123.39 53.78 123.40 59.56 122.71 C 60.10 124.68 60.33 126.72 60.53 128.75 C 54.47 129.21 48.51 130.52 42.42 130.73 C 42.29 128.64 42.23 126.54 42.19 124.45 Z" />
</g>
<g id="#434246ff">
<path fill="#434246" opacity="1.00" d=" M 42.42 130.73 C 48.51 130.52 54.47 129.21 60.53 128.75 L 60.67 128.74 C 61.05 130.53 61.44 132.33 61.83 134.12 C 55.67 134.89 49.46 135.67 43.23 135.06 C 42.97 133.61 42.70 132.17 42.42 130.73 Z" />
</g>
<g id="#333132ff">
<path fill="#333132" opacity="1.00" d=" M 43.23 135.06 C 49.46 135.67 55.67 134.89 61.83 134.12 C 62.57 136.65 63.32 139.18 64.19 141.67 C 58.11 141.76 51.96 142.09 46.07 143.71 C 44.94 140.89 43.94 138.02 43.23 135.06 Z" />
</g>
<g id="#221816ff">
<path fill="#221816" opacity="1.00" d=" M 228.21 201.89 C 232.04 201.59 236.55 200.60 239.80 203.24 C 242.07 205.40 240.79 208.76 238.50 210.32 C 242.22 211.39 242.89 216.81 239.62 218.77 C 236.20 220.76 231.99 220.32 228.22 219.97 C 228.26 213.94 228.27 207.92 228.21 201.89 M 232.28 204.39 C 232.26 205.95 232.24 207.52 232.23 209.09 C 233.86 208.88 236.97 209.24 236.98 206.86 C 237.21 204.33 233.99 204.47 232.28 204.39 M 232.23 211.91 C 232.25 213.76 232.27 215.61 232.33 217.46 C 234.20 217.17 237.29 217.37 237.53 214.85 C 237.74 211.98 234.25 211.92 232.23 211.91 Z" />
<path fill="#221816" opacity="1.00" d=" M 193.24 201.87 C 197.82 201.42 203.26 200.71 207.04 203.94 C 210.53 208.02 209.97 215.29 205.52 218.48 C 201.85 220.69 197.33 220.36 193.23 220.02 C 193.25 213.97 193.25 207.92 193.24 201.87 M 197.31 204.42 C 197.21 208.64 197.27 212.86 197.25 217.08 C 198.88 216.89 200.67 217.08 202.17 216.27 C 205.44 214.29 205.91 209.30 203.75 206.35 C 202.25 204.35 199.51 204.59 197.31 204.42 Z" />
<path fill="#221816" opacity="1.00" d=" M 244.50 201.75 C 245.50 201.75 247.50 201.75 248.50 201.75 C 248.50 206.66 248.49 211.58 248.51 216.50 C 250.91 216.50 253.32 216.49 255.73 216.49 C 255.74 217.65 255.76 218.81 255.78 219.98 C 252.02 220.01 248.26 220.00 244.50 220.00 C 244.50 213.92 244.49 207.83 244.50 201.75 Z" />
<path fill="#221816" opacity="1.00" d=" M 160.01 205.89 C 160.39 205.77 161.14 205.53 161.52 205.42 C 162.01 210.27 161.60 215.16 161.81 220.03 C 159.92 218.98 158.00 220.09 156.05 220.16 C 151.53 219.05 151.65 211.28 156.08 210.17 C 157.45 209.73 158.75 210.52 160.01 210.93 C 160.00 209.25 160.00 207.57 160.01 205.89 M 155.32 212.17 C 153.87 214.39 154.11 218.29 157.08 219.09 C 159.77 219.06 160.33 216.09 160.00 213.97 C 160.15 211.62 156.79 210.21 155.32 212.17 Z" />
<path fill="#221816" opacity="1.00" d=" M 168.98 205.74 C 169.59 205.75 170.20 205.77 170.81 205.79 C 170.77 207.60 170.74 209.42 170.68 211.24 C 172.22 210.58 173.98 209.48 175.68 210.35 C 179.01 211.94 179.04 217.16 176.41 219.41 C 174.16 221.19 171.40 218.82 168.97 219.99 C 169.02 215.24 169.00 210.49 168.98 205.74 M 171.49 212.33 C 169.88 214.46 170.41 219.33 173.92 219.01 C 176.84 218.35 177.17 214.36 175.71 212.24 C 174.62 210.83 172.52 210.94 171.49 212.33 Z" />
<path fill="#221816" opacity="1.00" d=" M 90.50 206.74 C 93.39 206.28 98.25 206.04 98.75 209.91 C 99.40 213.66 95.24 215.07 92.26 214.85 C 91.81 216.68 93.58 220.21 90.54 220.28 C 90.46 215.77 90.51 211.26 90.50 206.74 M 92.26 207.68 C 92.25 209.65 92.25 211.63 92.28 213.61 C 94.01 213.45 96.89 213.36 96.99 210.99 C 97.65 208.20 94.29 207.53 92.26 207.68 Z" />
<path fill="#221816" opacity="1.00" d=" M 102.57 210.68 C 105.04 209.14 108.89 210.35 109.54 213.32 C 110.87 216.77 107.72 221.21 103.91 220.09 C 99.61 219.29 98.96 212.77 102.57 210.68 M 103.02 212.01 C 101.45 214.06 101.56 217.73 104.13 218.87 C 107.39 219.85 109.00 215.22 107.50 212.90 C 106.83 211.08 104.35 210.72 103.02 212.01 Z" />
<path fill="#221816" opacity="1.00" d=" M 111.03 209.96 C 114.25 210.25 113.42 214.70 114.47 216.95 C 114.72 216.83 115.23 216.59 115.48 216.47 L 116.87 215.77 C 116.16 217.33 116.50 220.34 114.06 220.08 C 112.80 216.79 111.93 213.36 111.03 209.96 Z" />
<path fill="#221816" opacity="1.00" d=" M 121.32 217.51 C 122.45 215.07 121.74 210.57 124.96 209.89 C 124.26 212.85 123.21 215.71 122.40 218.64 C 122.13 218.36 121.59 217.79 121.32 217.51 Z" />
<path fill="#221816" opacity="1.00" d=" M 127.22 218.85 C 124.46 215.84 126.48 209.77 130.89 210.00 C 133.70 210.27 134.36 213.15 134.73 215.45 C 132.30 215.49 129.88 215.50 127.46 215.58 C 127.87 218.79 131.07 219.52 133.70 218.61 C 133.77 218.90 133.91 219.47 133.98 219.76 C 131.77 220.24 128.92 220.73 127.22 218.85 M 128.31 213.62 C 129.51 213.93 131.72 214.37 132.36 213.00 C 131.85 210.85 127.74 211.51 128.31 213.62 Z" />
<path fill="#221816" opacity="1.00" d=" M 136.80 209.90 C 137.45 210.46 138.10 211.02 138.75 211.59 C 139.27 211.09 140.31 210.08 140.83 209.57 C 141.10 210.02 141.65 210.91 141.92 211.35 C 141.20 211.57 139.75 212.00 139.02 212.22 C 138.35 214.75 138.45 217.37 138.55 219.96 C 138.08 219.94 137.14 219.89 136.66 219.86 C 136.79 216.54 136.71 213.22 136.80 209.90 Z" />
<path fill="#221816" opacity="1.00" d=" M 143.52 218.57 C 140.91 215.41 143.42 209.12 147.93 210.17 C 150.47 210.58 151.01 213.43 151.00 215.57 C 148.67 215.50 146.34 215.50 144.00 215.54 C 144.32 219.07 147.91 219.39 150.61 218.61 C 150.47 218.96 150.19 219.65 150.05 220.00 C 147.85 220.17 144.99 220.69 143.52 218.57 M 144.11 214.24 C 145.91 214.25 147.71 214.24 149.51 214.20 C 149.19 213.54 148.54 212.21 148.22 211.55 C 146.16 210.45 144.62 212.40 144.11 214.24 Z" />
<path fill="#221816" opacity="1.00" d=" M 179.02 210.06 C 182.74 210.24 182.08 215.62 183.58 218.10 C 184.50 215.53 185.05 212.82 186.24 210.36 C 186.67 210.27 187.53 210.09 187.95 210.00 C 185.98 215.07 185.07 221.10 180.60 224.70 C 180.22 224.28 179.85 223.86 179.48 223.44 C 180.63 222.37 181.75 221.26 182.83 220.11 C 181.55 216.76 180.19 213.44 179.02 210.06 Z" />
</g>
<g id="#221815ff">
<path fill="#221815" opacity="1.00" d=" M 212.24 201.85 C 216.22 201.61 221.20 200.47 224.32 203.68 C 226.35 206.26 224.87 209.64 222.51 211.38 C 224.72 213.71 224.98 217.04 225.88 219.97 C 224.51 219.99 223.14 220.01 221.78 220.03 C 220.76 217.05 220.72 211.97 216.31 212.55 C 216.25 215.03 216.24 217.52 216.25 220.00 C 214.91 220.00 213.57 219.99 212.24 219.99 C 212.25 213.94 212.25 207.90 212.24 201.85 M 216.27 204.38 C 216.25 206.21 216.25 208.05 216.27 209.88 C 218.19 209.79 221.41 209.67 221.30 206.99 C 221.27 204.31 218.17 204.50 216.27 204.38 Z" />
</g>
<g id="#fefffeff">
</g>
<g id="#fffffeff">
</g>
<g id="#fefeffff">
</g>
</svg>
