<?xml version="1.0" encoding="UTF-8" standalone="no"?>
<!-- Created with Inkscape (http://www.inkscape.org/) -->

<svg
   xmlns:dc="http://purl.org/dc/elements/1.1/"
   xmlns:cc="http://creativecommons.org/ns#"
   xmlns:rdf="http://www.w3.org/1999/02/22-rdf-syntax-ns#"
   xmlns:svg="http://www.w3.org/2000/svg"
   xmlns="http://www.w3.org/2000/svg"
   xmlns:sodipodi="http://sodipodi.sourceforge.net/DTD/sodipodi-0.dtd"
   xmlns:inkscape="http://www.inkscape.org/namespaces/inkscape"
   width="210mm"
   height="297mm"
   viewBox="0 0 210 297"
   version="1.1"
   id="svg8"
   inkscape:version="0.92.5 (0.92.5+68)"
   sodipodi:docname="kali_dragon_.svg">
  <defs
     id="defs2" />
  <sodipodi:namedview
     id="base"
     pagecolor="#ffffff"
     bordercolor="#666666"
     borderopacity="1.0"
     inkscape:pageopacity="0.0"
     inkscape:pageshadow="2"
     inkscape:zoom="0.49497475"
     inkscape:cx="912.88036"
     inkscape:cy="580.4715"
     inkscape:document-units="mm"
     inkscape:current-layer="layer1"
     showgrid="false"
     inkscape:window-width="512"
     inkscape:window-height="423"
     inkscape:window-x="2621"
     inkscape:window-y="312"
     inkscape:window-maximized="0" />
  <metadata
     id="metadata5">
    <rdf:RDF>
      <cc:Work
         rdf:about="">
        <dc:format>image/svg+xml</dc:format>
        <dc:type
           rdf:resource="http://purl.org/dc/dcmitype/StillImage" />
        <dc:title></dc:title>
      </cc:Work>
    </rdf:RDF>
  </metadata>
  <g
     inkscape:label="Layer 1"
     inkscape:groupmode="layer"
     id="layer1">
    <path
       style="fill:none;stroke:#cccccc;stroke-width:0.153;stroke-miterlimit:4;stroke-dasharray:none"
       d="m 110.81257,111.13883 c -0.28288,-1.67195 -1.13468,-3.36514 -2.06653,-4.65781 -0.93185,-1.29267 -2.87968,-3.02392 -3.63043,-3.61926 -1.39153,-1.11236 -3.73876,-2.45128 -4.67284,-2.960351 -0.934091,-0.50907 -4.027251,-1.81809 -6.069941,-2.76871 -2.04269,-0.95062 -3.75349,-1.58972 -8.00715,-3.78361 -4.25367,-2.1939 -5.08435,-4.18454 -5.87161,-4.32902 -0.86077,0.28901 -1.14715,1.22996 -1.37011,2.03668 -0.49487,-1.06269 -1.04102,-6.412 -1.74451,-6.22981 -1.10576,0.0826 -2.01786,0.8901 -2.54051,1.63808 0.0561,-2.2162 1.56407,-4.4517 1.27414,-6.44607 -1.09769,-0.15449 -1.99076,-0.0497 -3.00256,0.30711 1.04449,-1.76312 2.47195,-3.215405 3.45869,-4.865485 0,0 0.15859,-0.355178 0.11812,-0.522369 -0.0405,-0.167192 -0.54334,-0.286128 -0.54334,-0.286128 -0.8742,-0.431297 -1.41042,-0.59038 -2.45872,-0.523712 0,0 2.51223,-1.28427 2.90112,-1.586367 0.38888,-0.302096 1.90102,-1.177594 2.39319,-1.763528 0,0 0.11503,-0.247575 0.0945,-0.393474 -0.0205,-0.1459 -0.22443,-0.346237 -0.22443,-0.346237 -0.57407,-0.588121 -1.2981,-0.911399 -2.20951,-1.366645 0.94745,-0.159939 1.91029,-0.312181 2.98203,-0.409976 1.31357,-0.20263 2.7483,-0.609187 3.25985,-0.832151 0.29932,-0.173731 0.0438,-0.378317 -0.0413,-0.611152 -0.36516,-0.844234 -0.96493,-1.405835 -1.61063,-2.029524 l 2.51503,0.311153 c 1.31635,0.250444 3.4151,0.502115 3.90018,0.534281 0.006,-0.21148 0.11714,-0.277501 0.0118,-0.963727 -0.17634,-0.817238 -0.61071,-1.815576 -0.89435,-2.175652 0,0 2.11651,0.864002 3.01028,1.26566 0.89378,0.401657 2.34882,1.112099 2.34882,1.112099 0.23135,0.180053 0.42812,0.248047 0.65131,0.248047 -0.0255,-0.390697 0.13774,-0.557087 -0.0354,-1.538983 l -0.17718,-1.01927 c 3.07139,2.63228 5.75746,3.998069 8.435101,4.325981 -1.229271,-2.118864 -2.777341,-4.273915 -3.870241,-6.320762 -0.87351,-1.554644 -1.65064,-3.115645 -2.05997,-4.507311 v -0.180206 -0.180203 c 0.95971,1.489868 1.66454,2.518952 3.25629,4.531646 1.59174,2.012695 4.125151,4.782423 6.711251,7.295156 l 1.26537,1.399979 0.046,-0.754881 -1.52275,-2.21459 -1.52275,-2.21459 -0.76116,-1.269676 -0.76116,-1.269671 -0.88162,-1.993523 -0.88163,-1.993519 h 0.12955 0.12956 l 1.4424,1.910443 1.4424,1.910444 2.45846,2.763862 2.45847,2.76386 c 1.70275,1.921508 4.19754,3.669689 6.4721,5.948399 0.72285,0.848622 1.3424,1.796096 1.3424,1.796096 1.29236,2.369791 2.67895,4.947776 4.30572,6.826976 -0.32987,0 -0.81009,-0.28397 -1.13996,-0.28397 -0.19573,0.49142 -0.0713,0.894 0,1.35626 1.03504,1.88553 2.49431,3.58186 4.07665,4.71316 0.81213,0.63488 1.84687,0.74094 1.84687,0.74094 -0.0173,1.78806 -1.00588,3.53286 -2.06052,4.49942 -1.05464,0.96656 -1.91185,1.2877 -2.59397,1.64932 -0.68211,0.36161 -1.25998,0.56339 -1.84898,0.69703 0.42264,-0.51882 0.51774,-0.56448 0.64686,-1.38144 0.12912,-0.81696 -0.0404,-2.17265 -0.0668,-2.61155 -0.78013,-1.61699 -2.21881,-3.29876 -3.45671,-4.37285 -2.17894,-1.89906 -5.5055,-3.90699 -6.70254,-4.71474 -1.58302,-1.62681 -2.57084,-3.34239 -4.07434,-5.027175 -1.44243,-1.729718 -3.29405,-2.894327 -5.523931,-4.068282 -2.22988,-1.173955 -5.76589,-1.848462 -7.22998,-1.824834 -2.20967,0.02908 -5.89153,0.861935 -7.55259,2.314987 -1.66106,1.453052 -2.63037,2.769859 -2.90956,4.640979 -0.2792,1.871125 -0.0508,4.113125 0.34906,5.639905 0.39987,1.52678 3.57494,6.01159 9.42062,9.11729 5.84568,3.1057 10.917061,4.77611 14.368431,7.923491 3.45136,3.14739 5.81807,7.49551 5.48636,11.46414 l -0.13594,1.93809 z m 2.4565,-35.821451 c -0.36512,-0.11332 -0.92636,0.186255 -0.95074,0.748335 0.65954,1.18227 1.48174,1.93874 2.80182,2.763085 0.39146,0.27279 0.76796,0.57291 1.14522,0.60971 -0.74192,-1.16711 -2.23736,-3.782485 -2.9963,-4.12113 z"
       id="path1231"
       inkscape:connector-curvature="0"
       sodipodi:nodetypes="czczzzccccccczcczczcccccccccczccccccccczcccccccccccccccccccccczzczcccczczzzzzcccccccc" />
  </g>
</svg>
