<?xml version="1.0" encoding="UTF-8" standalone="no"?>
<!-- Created with Inkscape (http://www.inkscape.org/) -->

<svg
   xmlns:dc="http://purl.org/dc/elements/1.1/"
   xmlns:cc="http://creativecommons.org/ns#"
   xmlns:rdf="http://www.w3.org/1999/02/22-rdf-syntax-ns#"
   xmlns:svg="http://www.w3.org/2000/svg"
   xmlns="http://www.w3.org/2000/svg"
   xmlns:sodipodi="http://sodipodi.sourceforge.net/DTD/sodipodi-0.dtd"
   xmlns:inkscape="http://www.inkscape.org/namespaces/inkscape"
   width="5120"
   height="2880"
   viewBox="0 0 5120.0001 2880"
   id="svg2"
   version="1.1"
   inkscape:version="0.91 r13725"
   sodipodi:docname="MX-pyramids.svg">
  <defs
     id="defs4" />
  <sodipodi:namedview
     id="base"
     pagecolor="#ffffff"
     bordercolor="#666666"
     borderopacity="1.0"
     inkscape:pageopacity="0.0"
     inkscape:pageshadow="2"
     inkscape:zoom="0.17265625"
     inkscape:cx="2560"
     inkscape:cy="1440"
     inkscape:document-units="px"
     inkscape:current-layer="layer1"
     showgrid="false"
     inkscape:window-width="1400"
     inkscape:window-height="865"
     inkscape:window-x="40"
     inkscape:window-y="0"
     inkscape:window-maximized="1"
     units="px"
     borderlayer="true"
     inkscape:showpageshadow="false" />
  <metadata
     id="metadata7">
    <rdf:RDF>
      <cc:Work
         rdf:about="">
        <dc:format>image/svg+xml</dc:format>
        <dc:type
           rdf:resource="http://purl.org/dc/dcmitype/StillImage" />
        <dc:title></dc:title>
      </cc:Work>
    </rdf:RDF>
  </metadata>
  <g
     inkscape:label="Layer 1"
     inkscape:groupmode="layer"
     id="layer1"
     transform="translate(0,1827.6378)">
    <path
       style="fill:#000000;fill-rule:evenodd;stroke:#000000;stroke-width:0;stroke-linecap:butt;stroke-linejoin:miter;stroke-miterlimit:4;stroke-dasharray:none;stroke-opacity:1"
       d="m 2927.3095,-1816.0806 -917.7406,1069.99888 -914.7585,-1065.82908 -375.29174,322.155 964.19994,1123.49295 -140.8235,164.17528 -238.9934,-282.4813 -652.65091,771.31436 -652.7694174,771.19431 1305.4203274,0 826.5957,0 478.8247,0 336.9259,0 815.8695,0 L 3354.1796,567.91539 2946.248,77.891673 2833.3083,213.5929 l -626.9176,-730.44868 947.6425,-1104.78782 -226.7237,-194.437 z m -1046.7691,1679.04308 631.799,736.28726 -144.3986,173.46915 -411.395,-485.9734 -218.2602,-257.938831 142.2548,-165.844179 z"
       id="path3417-0"
       inkscape:connector-curvature="0" />
  </g>
</svg>
