<?xml version="1.0" encoding="UTF-8" standalone="no"?>
<!-- Created with Inkscape (http://www.inkscape.org/) -->

<svg
   xmlns:dc="http://purl.org/dc/elements/1.1/"
   xmlns:cc="http://creativecommons.org/ns#"
   xmlns:rdf="http://www.w3.org/1999/02/22-rdf-syntax-ns#"
   xmlns:svg="http://www.w3.org/2000/svg"
   xmlns="http://www.w3.org/2000/svg"
   xmlns:sodipodi="http://sodipodi.sourceforge.net/DTD/sodipodi-0.dtd"
   xmlns:inkscape="http://www.inkscape.org/namespaces/inkscape"
   width="210mm"
   height="297mm"
   viewBox="0 0 210 297"
   version="1.1"
   id="svg5649"
   inkscape:version="0.92.5 (0.92.5+68)"
   sodipodi:docname="orangepi_logo.svg">
  <defs
     id="defs5643" />
  <sodipodi:namedview
     id="base"
     pagecolor="#ffffff"
     bordercolor="#666666"
     borderopacity="1.0"
     inkscape:pageopacity="0.0"
     inkscape:pageshadow="2"
     inkscape:zoom="0.35"
     inkscape:cx="-145.71429"
     inkscape:cy="560"
     inkscape:document-units="mm"
     inkscape:current-layer="layer1"
     showgrid="false"
     inkscape:window-width="788"
     inkscape:window-height="415"
     inkscape:window-x="887"
     inkscape:window-y="343"
     inkscape:window-maximized="1" />
  <metadata
     id="metadata5646">
    <rdf:RDF>
      <cc:Work
         rdf:about="">
        <dc:format>image/svg+xml</dc:format>
        <dc:type
           rdf:resource="http://purl.org/dc/dcmitype/StillImage" />
        <dc:title></dc:title>
      </cc:Work>
    </rdf:RDF>
  </metadata>
  <g
     inkscape:label="Layer 1"
     inkscape:groupmode="layer"
     id="layer1">
    <g
       id="g5641"
       transform="matrix(0.28222223,0,0,0.28222223,-266.33047,-245.33625)">
      <path
         id="circle27702"
         transform="matrix(0.9375,0,0,0.9375,0,308.26772)"
         d="m 447.86328,1083.1602 a 61.205705,61.205705 0 0 0 -6.70312,0.4101 11.628637,11.628637 0 0 1 -10.91407,7.6621 11.628637,11.628637 0 0 1 -7.35547,-2.6328 61.205705,61.205705 0 0 0 -10.81445,6.207 11.628637,11.628637 0 0 1 0.125,1.6153 11.628637,11.628637 0 0 1 -11.6289,11.6289 11.628637,11.628637 0 0 1 -1.77539,-0.1524 61.205705,61.205705 0 0 0 -6.52149,11.0391 11.628637,11.628637 0 0 1 2.74414,7.4844 11.628637,11.628637 0 0 1 -7.89648,10.998 61.205705,61.205705 0 0 0 -0.4668,6.9453 61.205705,61.205705 0 0 0 0.31836,6.1895 11.628637,11.628637 0 0 1 8.04492,11.0488 11.628637,11.628637 0 0 1 -2.97461,7.7461 61.205705,61.205705 0 0 0 6.27344,10.8477 11.628637,11.628637 0 0 1 2.25391,-0.2227 11.628637,11.628637 0 0 1 11.6289,11.6289 11.628637,11.628637 0 0 1 -0.22851,2.2344 61.205705,61.205705 0 0 0 10.36328,6.0781 11.628637,11.628637 0 0 1 7.91015,-3.123 11.628637,11.628637 0 0 1 11.1543,8.3691 61.205705,61.205705 0 0 0 6.46289,0.4082 61.205705,61.205705 0 0 0 6.69531,-0.3945 11.628637,11.628637 0 0 1 11.16016,-8.3828 11.628637,11.628637 0 0 1 7.83203,3.0508 61.205705,61.205705 0 0 0 10.46484,-6.1719 11.628637,11.628637 0 0 1 -0.2539,-2.3965 11.628637,11.628637 0 0 1 11.6289,-11.6289 11.628637,11.628637 0 0 1 2.22071,0.2246 61.205705,61.205705 0 0 0 6.07226,-10.5566 11.628637,11.628637 0 0 1 -2.93945,-7.711 11.628637,11.628637 0 0 1 7.94922,-11.0215 61.205705,61.205705 0 0 0 0.375,-6.2168 61.205705,61.205705 0 0 0 -0.44531,-6.9472 11.628637,11.628637 0 0 1 -7.87891,-10.9961 11.628637,11.628637 0 0 1 2.69336,-7.4395 61.205705,61.205705 0 0 0 -6.25781,-10.7519 11.628637,11.628637 0 0 1 -1.78907,0.1465 11.628637,11.628637 0 0 1 -11.6289,-11.629 11.628637,11.628637 0 0 1 0.14844,-1.7558 61.205705,61.205705 0 0 0 -10.88868,-6.3457 11.628637,11.628637 0 0 1 -7.30273,2.5859 11.628637,11.628637 0 0 1 -10.9082,-7.6191 61.205705,61.205705 0 0 0 -6.94727,-0.4531 z"
         style="fill:#f3a522;fill-opacity:1;stroke:none;stroke-width:0.63183022;stroke-miterlimit:4;stroke-dasharray:none;stroke-opacity:1"
         inkscape:connector-curvature="0" />
      <circle
         r="42.393135"
         cy="1380.9686"
         cx="419.7424"
         id="path5536"
         style="fill:#f9d291;fill-opacity:1;stroke:none;stroke-width:0.270484;stroke-miterlimit:4;stroke-dasharray:none;stroke-opacity:1" />
      <path
         sodipodi:nodetypes="czccc"
         inkscape:connector-curvature="0"
         id="path27730"
         d="m 386.12182,1355.1081 c 0.99205,-4.0772 2.37929,-7.7017 7.0917,-11.093 4.71241,-3.3913 8.95924,-3.2759 13.11299,-3.2438 l 11.66532,37.1942 z"
         style="fill:#ffffff;fill-opacity:1;stroke:none;stroke-width:0.46875;stroke-miterlimit:4;stroke-dasharray:none;stroke-opacity:1" />
      <path
         style="fill:#ffffff;fill-opacity:1;stroke:none;stroke-width:0.46875;stroke-miterlimit:4;stroke-dasharray:none;stroke-opacity:1"
         d="m 407.59935,1340.4763 c 3.19888,-2.7157 6.45137,-4.833 12.25713,-4.8072 5.80581,0.025 9.17395,2.398 12.51583,4.8651 l -12.42124,37.1656 z"
         id="path27732"
         inkscape:connector-curvature="0"
         sodipodi:nodetypes="czccc" />
      <path
         style="fill:#ffffff;fill-opacity:1;stroke:none;stroke-width:0.46875;stroke-miterlimit:4;stroke-dasharray:none;stroke-opacity:1"
         d="m 433.622,1340.7984 c 4.183,-0.3319 8.05943,-0.1472 12.75372,3.2697 4.69412,3.4164 5.91182,7.4867 7.17948,11.4422 l -31.68529,22.7054 z"
         id="path27736"
         inkscape:connector-curvature="0"
         sodipodi:nodetypes="czccc" />
      <path
         sodipodi:nodetypes="czccc"
         inkscape:connector-curvature="0"
         id="path27738"
         d="m 454.49475,1356.5999 c 3.57517,2.1962 6.59828,4.6302 8.37735,10.1568 1.77942,5.5263 0.36471,9.5323 -0.94203,13.4754 l -38.97927,-0.3273 z"
         style="fill:#ffffff;fill-opacity:1;stroke:none;stroke-width:0.46875;stroke-miterlimit:4;stroke-dasharray:none;stroke-opacity:1" />
      <path
         style="fill:#ffffff;fill-opacity:1;stroke:none;stroke-width:0.46875;stroke-miterlimit:4;stroke-dasharray:none;stroke-opacity:1"
         d="m 384.98207,1356.5457 c -3.57517,2.1962 -6.59828,4.6302 -8.37735,10.1568 -1.77942,5.5263 -0.36471,9.5323 0.94203,13.4754 l 38.97927,-0.3273 z"
         id="path27740"
         inkscape:connector-curvature="0"
         sodipodi:nodetypes="czccc" />
      <path
         style="fill:#ffffff;fill-opacity:1;stroke:none;stroke-width:0.46875;stroke-miterlimit:4;stroke-dasharray:none;stroke-opacity:1"
         d="m 385.90486,1406.6947 c 0.99205,4.0772 2.37929,7.7017 7.0917,11.093 4.71241,3.3913 8.95924,3.2759 13.11299,3.2438 l 11.66532,-37.1942 z"
         id="path27742"
         inkscape:connector-curvature="0"
         sodipodi:nodetypes="czccc" />
      <path
         sodipodi:nodetypes="czccc"
         inkscape:connector-curvature="0"
         id="path27744"
         d="m 407.59935,1421.5433 c 3.19888,2.7157 6.45137,4.833 12.25713,4.8072 5.80581,-0.025 9.17395,-2.398 12.51583,-4.8651 l -12.42124,-37.1656 z"
         style="fill:#ffffff;fill-opacity:1;stroke:none;stroke-width:0.46875;stroke-miterlimit:4;stroke-dasharray:none;stroke-opacity:1" />
      <path
         sodipodi:nodetypes="czccc"
         inkscape:connector-curvature="0"
         id="path27746"
         d="m 433.622,1421.0044 c 4.183,0.3319 8.05943,0.1472 12.75372,-3.2697 4.69412,-3.4164 5.91182,-7.4867 7.17948,-11.4422 l -31.68529,-22.7054 z"
         style="fill:#ffffff;fill-opacity:1;stroke:none;stroke-width:0.46875;stroke-miterlimit:4;stroke-dasharray:none;stroke-opacity:1" />
      <path
         style="fill:#ffffff;fill-opacity:1;stroke:none;stroke-width:0.46875;stroke-miterlimit:4;stroke-dasharray:none;stroke-opacity:1"
         d="m 454.31285,1405.2571 c 3.57517,-2.1962 6.59828,-4.6302 8.37735,-10.1568 1.77942,-5.5263 0.36471,-9.5323 -0.94203,-13.4754 l -38.97927,0.3273 z"
         id="path27748"
         inkscape:connector-curvature="0"
         sodipodi:nodetypes="czccc" />
      <path
         sodipodi:nodetypes="czccc"
         inkscape:connector-curvature="0"
         id="path27750"
         d="m 384.92783,1405.2571 c -3.57517,-2.1962 -6.59828,-4.6302 -8.37735,-10.1568 -1.77942,-5.5263 -0.36471,-9.5323 0.94203,-13.4754 l 38.97927,0.3273 z"
         style="fill:#ffffff;fill-opacity:1;stroke:none;stroke-width:0.46875;stroke-miterlimit:4;stroke-dasharray:none;stroke-opacity:1" />
      <circle
         r="4.42032"
         cy="1381.0563"
         cx="419.55063"
         id="path5538"
         style="fill:#f4a626;fill-opacity:1;stroke:none;stroke-width:0.19717743;stroke-miterlimit:4;stroke-dasharray:none;stroke-opacity:1" />
      <path
         sodipodi:nodetypes="cscac"
         inkscape:connector-curvature="0"
         id="path27752"
         d="m 412.35417,1323.4298 c -1.16772,0.4866 -7.62579,-1.6612 -10.8918,-5.4459 -3.05888,-3.5446 -4.76328,-10.4261 -4.76328,-10.4261 4.35134,1.4596 9.25463,2.8216 12.28016,6.2842 2.22933,2.5514 4.07731,5.9298 3.37492,9.5878 z"
         style="fill:#79b43c;fill-opacity:1;stroke:none;stroke-width:0.1875;stroke-miterlimit:4;stroke-dasharray:none;stroke-opacity:1" />
      <path
         sodipodi:nodetypes="ccccccccc"
         inkscape:connector-curvature="0"
         id="path27754"
         d="m 423.09256,1321.1288 c 0.70615,-2.7349 1.10855,-6.0722 7.74698,-10.2783 7.4153,-4.2616 18.91451,-7.316 29.60728,-7.6702 l 17.10472,0.1534 c -2.90174,0.2694 -5.57866,1.6629 -8.2839,2.9148 -9.34178,5.1963 -21.52212,17.3671 -24.62159,18.4853 -8.22931,3.0115 -15.86681,0.1011 -19.86603,-2.1477 4.62145,-5.3958 12.74209,-11.0097 21.32337,-14.4201 -7.94281,1.4956 -16.46342,7.6797 -23.01083,12.9628 z"
         style="fill:#7bb637;fill-opacity:1;stroke:none;stroke-width:0.1875;stroke-miterlimit:4;stroke-dasharray:none;stroke-opacity:1" />
      <path
         style="fill:#f7b566;fill-opacity:1;stroke:none;stroke-width:0.13470387;stroke-miterlimit:4;stroke-dasharray:none;stroke-opacity:1"
         d="m 407.85829,1370.0035 c 0.28506,-1.1733 0.68374,-2.2144 2.03802,-3.1882 1.35418,-0.9759 2.57452,-0.9416 3.76819,-0.9331 l 3.35234,10.6879 z"
         id="path27756"
         inkscape:connector-curvature="0"
         sodipodi:nodetypes="czccc" />
      <path
         sodipodi:nodetypes="czccc"
         inkscape:connector-curvature="0"
         id="path27758"
         d="m 416.28625,1364.9245 c 0.95241,-0.8072 1.92058,-1.4382 3.64904,-1.4284 1.72809,0.01 2.73084,0.7109 3.72568,1.446 l -3.69778,11.0631 z"
         style="fill:#f7b566;fill-opacity:1;stroke:none;stroke-width:0.13954337;stroke-miterlimit:4;stroke-dasharray:none;stroke-opacity:1" />
      <path
         sodipodi:nodetypes="czccc"
         inkscape:connector-curvature="0"
         id="path27760"
         d="m 426.19335,1365.8081 c 1.26437,-0.1007 2.436,-0.043 3.85483,0.9891 1.41881,1.0328 1.78685,2.2626 2.17003,3.4581 l -9.57696,6.863 z"
         style="fill:#f7b566;fill-opacity:1;stroke:none;stroke-width:0.14167972;stroke-miterlimit:4;stroke-dasharray:none;stroke-opacity:1" />
      <path
         style="fill:#f7b566;fill-opacity:1;stroke:none;stroke-width:0.1394558;stroke-miterlimit:4;stroke-dasharray:none;stroke-opacity:1"
         d="m 433.79732,1372.5175 c 1.06366,0.6532 1.96305,1.3776 2.49235,3.0224 0.52934,1.6431 0.10836,2.8349 -0.28029,4.0079 l -11.59659,-0.096 z"
         id="path27762"
         inkscape:connector-curvature="0"
         sodipodi:nodetypes="czccc" />
      <path
         sodipodi:nodetypes="czccc"
         inkscape:connector-curvature="0"
         id="path27764"
         d="m 405.86035,1372.619 c -1.02328,0.6286 -1.88856,1.3257 -2.39773,2.9081 -0.50927,1.5807 -0.10425,2.7269 0.26961,3.8558 l 11.15646,-0.093 z"
         style="fill:#f7b566;fill-opacity:1;stroke:none;stroke-width:0.13416298;stroke-miterlimit:4;stroke-dasharray:none;stroke-opacity:1" />
      <path
         sodipodi:nodetypes="czccc"
         inkscape:connector-curvature="0"
         id="path27766"
         d="m 407.57065,1391.9183 c 0.28828,1.185 0.69144,2.2376 2.06086,3.2233 1.36943,0.9862 2.60355,0.9518 3.81062,0.9419 l 3.38994,-10.8071 z"
         style="fill:#f7b566;fill-opacity:1;stroke:none;stroke-width:0.13621783;stroke-miterlimit:4;stroke-dasharray:none;stroke-opacity:1" />
      <path
         style="fill:#f7b566;fill-opacity:1;stroke:none;stroke-width:0.13482715;stroke-miterlimit:4;stroke-dasharray:none;stroke-opacity:1"
         d="m 416.45584,1396.7231 c 0.92014,0.7821 1.85554,1.3906 3.52559,1.3819 1.66978,-0.01 2.63864,-0.6883 3.59989,-1.3979 l -3.57265,-10.6901 z"
         id="path27768"
         inkscape:connector-curvature="0"
         sodipodi:nodetypes="czccc" />
      <path
         style="fill:#f7b566;fill-opacity:1;stroke:none;stroke-width:0.1378482;stroke-miterlimit:4;stroke-dasharray:none;stroke-opacity:1"
         d="m 426.29872,1395.8064 c 1.23017,0.098 2.37012,0.042 3.75058,-0.9623 1.38044,-1.0049 1.73853,-2.2014 2.11134,-3.3646 l -9.31796,-6.6774 z"
         id="path27770"
         inkscape:connector-curvature="0"
         sodipodi:nodetypes="czccc" />
      <path
         sodipodi:nodetypes="czccc"
         inkscape:connector-curvature="0"
         id="path27772"
         d="m 433.41082,1389.1707 c 1.03576,-0.6361 1.91154,-1.3413 2.42692,-2.9429 0.51551,-1.6002 0.10565,-2.7608 -0.27288,-3.9029 l -11.29236,0.093 z"
         style="fill:#f7b566;fill-opacity:1;stroke:none;stroke-width:0.1357972;stroke-miterlimit:4;stroke-dasharray:none;stroke-opacity:1" />
      <path
         style="fill:#f7b566;fill-opacity:1;stroke:none;stroke-width:0.13470772;stroke-miterlimit:4;stroke-dasharray:none;stroke-opacity:1"
         d="m 405.87763,1389.1209 c -1.02744,-0.6312 -1.89623,-1.3311 -2.40746,-2.9199 -0.51135,-1.5872 -0.10468,-2.738 0.27069,-3.8715 l 11.20176,0.093 z"
         id="path27774"
         inkscape:connector-curvature="0"
         sodipodi:nodetypes="czccc" />
      <path
         id="rect5540"
         transform="matrix(0.9375,0,0,0.9375,0,308.26772)"
         d="m 518.06055,1125.8145 v 50.1328 h 12.82617 v -32.7266 c 1.50828,-5.4947 5.46894,-9.5155 11.14648,-9.4922 8.59457,0.035 11.09845,7.1377 11.39453,11.1387 h 12.94532 c -0.3759,-10.2805 -11.05666,-18.9719 -18.81836,-19.0527 -5.99677,-0.063 -10.74208,0.2956 -16.66797,6.7695 v -6.7695 z"
         style="fill:#1a1a1a;fill-opacity:1;stroke:none;stroke-width:0.2;stroke-miterlimit:4;stroke-dasharray:none;stroke-opacity:1"
         inkscape:connector-curvature="0" />
      <path
         id="rect5542"
         transform="matrix(0.9375,0,0,0.9375,0,308.26772)"
         d="m 602.98633,1125.2207 v 3.5176 c 0,0 -7.55178,-3.0206 -12.10938,-2.9238 -16.70673,0.3545 -25.11331,13.6651 -24.99414,25.5878 0.11661,11.6668 8.7066,24.8819 24.95313,24.545 7.6661,-0.1591 12.15039,-2.7012 12.15039,-2.7012 v 2.7012 h 13.08984 v -50.7266 z m -11.80664,14.291 a 11.82573,11.82573 0 0 1 11.80664,11.2676 v 0.9512 a 11.82573,11.82573 0 0 1 -11.80664,11.4316 11.82573,11.82573 0 0 1 -11.82617,-11.8242 11.82573,11.82573 0 0 1 11.82617,-11.8262 z"
         style="fill:#1a1a1a;fill-opacity:1;stroke:none;stroke-width:0.2;stroke-miterlimit:4;stroke-dasharray:none;stroke-opacity:1"
         inkscape:connector-curvature="0" />
      <path
         id="rect5544"
         transform="matrix(0.9375,0,0,0.9375,0,308.26772)"
         d="m 623.60352,1125.8145 v 50.1328 h 13.2539 v -34.4063 c 0,0 2.72751,-7.8125 11.15235,-7.8125 10.8289,0 10.93945,11.1387 10.93945,11.1387 v 31.0801 h 13.41797 v -31.0801 c 0,-2.3057 -2.35885,-8.8894 -4.70899,-11.3008 -1.26712,-1.3002 -6.4195,-7.7519 -15.39648,-7.7519 -10.92441,0 -15.4043,7.0156 -15.4043,7.0156 v -7.0156 z"
         style="fill:#1a1a1a;fill-opacity:1;stroke:none;stroke-width:0.2;stroke-miterlimit:4;stroke-dasharray:none;stroke-opacity:1"
         inkscape:connector-curvature="0" />
      <path
         id="path5554"
         transform="matrix(0.9375,0,0,0.9375,0,308.26772)"
         d="m 758.60156,1125.8145 c -17.16368,0 -25.03711,13.9486 -25.03711,25.5878 0,12.1428 7.19488,24.9522 26.91797,24.545 13.24347,-0.2735 17.42774,-6.3828 17.42774,-6.3828 v -13.8262 c -1.08702,2.2383 -2.20457,4.3371 -4.67969,5.6972 -4.84771,2.9689 -15.4352,5.1291 -21.66602,0.9297 l 29.61719,-23.2363 c -4.82774,-7.7535 -12.36285,-13.1809 -22.58008,-13.3144 z m -1.26953,10.9121 c 1.58441,-0.053 3.35409,0.1829 5.40039,0.7656 l -18.57226,14.8086 c -0.59493,-3.7787 0.68897,-8.3823 4.41796,-11.6172 2.67759,-2.3228 5.26821,-3.8407 8.75391,-3.957 z"
         style="fill:#1a1a1a;fill-opacity:1;stroke:none;stroke-width:0.2;stroke-miterlimit:4;stroke-dasharray:none;stroke-opacity:1"
         inkscape:connector-curvature="0" />
      <path
         sodipodi:nodetypes="cccccccccccscccccccccc"
         inkscape:connector-curvature="0"
         id="rect5558"
         transform="matrix(0.9375,0,0,0.9375,0,308.26772)"
         d="m 701.87109,1125.8145 c -5.75289,0.08 -11.5209,2.4019 -16.14062,6.1152 -4.58013,4.1244 -8.32256,9.3258 -8.62109,18.9551 0.42181,14.0104 8.83469,19.3931 9.83593,20.248 2.82028,2.4081 9.46923,5.0348 15.85157,4.8145 4.94211,-0.1706 10.49505,-2.0698 11.75976,-2.5215 l -0.45117,41.5469 c 0.14196,2.7856 -0.88206,4.6089 -2.44336,6.1796 -2.31619,2.3303 -4.4903,2.2175 -6.56836,2.3301 v 14.3321 c 3.67419,-0.4832 6.84371,-1.2972 9.98047,-2.7969 5.12862,-2.4522 8.44155,-6.8127 10.74805,-11.5352 1.26053,-2.5809 1.36131,-5.391 1.36132,-8.5097 v -89.1582 h -12.25255 l -0.0371,3.4511 c -3.60249,-2.2595 -8.42642,-3.5153 -13.02284,-3.4511 z m 0.15235,12.5449 c 6.91096,3e-4 12.51333,5.6026 12.51367,12.5136 8.2e-4,6.9118 -5.60189,12.5154 -12.51367,12.5157 -6.91254,8e-4 -12.51645,-5.6032 -12.51563,-12.5157 3.4e-4,-6.9117 5.60391,-12.5144 12.51563,-12.5136 z"
         style="fill:#1a1a1a;fill-opacity:1;stroke:none;stroke-width:0.2;stroke-miterlimit:4;stroke-dasharray:none;stroke-opacity:1" />
      <path
         id="rect5586"
         transform="matrix(0.9375,0,0,0.9375,0,308.26772)"
         d="m 850.5625,1125.8145 v 109.2031 h 12.76367 v -62.334 a 24.877895,24.877895 0 0 0 12.14063,3.1992 24.877895,24.877895 0 0 0 24.8789,-24.8769 24.877895,24.877895 0 0 0 -24.8789,-24.8789 24.877895,24.877895 0 0 0 -12.14063,3.1777 v -3.4902 z m 24.61523,13.3105 a 11.937857,11.937857 0 0 1 11.9375,11.9375 11.937857,11.937857 0 0 1 -11.9375,11.9375 11.937857,11.937857 0 0 1 -11.85156,-10.6289 v -2.668 a 11.937857,11.937857 0 0 1 11.85156,-10.5781 z"
         style="fill:#1a1a1a;fill-opacity:1;stroke:none;stroke-width:0.2;stroke-miterlimit:4;stroke-dasharray:none;stroke-opacity:1"
         inkscape:connector-curvature="0" />
      <rect
         y="1363.718"
         x="848.33282"
         height="46.99971"
         width="12.27244"
         id="rect5588"
         style="fill:#1a1a1a;fill-opacity:1;stroke:none;stroke-width:0.1875;stroke-miterlimit:4;stroke-dasharray:none;stroke-opacity:1" />
      <rect
         y="1337.85"
         x="848.33282"
         height="11.81223"
         width="12.27244"
         id="rect5604"
         style="fill:#1a1a1a;fill-opacity:1;stroke:none;stroke-width:0.09375;stroke-miterlimit:4;stroke-dasharray:none;stroke-opacity:1" />
    </g>
  </g>
</svg>
