<?xml version="1.0" encoding="UTF-8" standalone="no"?>
<!-- Created with Inkscape (http://www.inkscape.org/) -->

<svg
   xmlns:dc="http://purl.org/dc/elements/1.1/"
   xmlns:cc="http://creativecommons.org/ns#"
   xmlns:rdf="http://www.w3.org/1999/02/22-rdf-syntax-ns#"
   xmlns:svg="http://www.w3.org/2000/svg"
   xmlns="http://www.w3.org/2000/svg"
   xmlns:xlink="http://www.w3.org/1999/xlink"
   xmlns:sodipodi="http://sodipodi.sourceforge.net/DTD/sodipodi-0.dtd"
   xmlns:inkscape="http://www.inkscape.org/namespaces/inkscape"
   width="210mm"
   height="297mm"
   viewBox="0 0 210 297"
   version="1.1"
   id="svg10905"
   inkscape:version="0.92.5 (0.92.5+68)"
   sodipodi:docname="orangepi_logo_mod.svg">
  <defs
     id="defs10899" />
  <sodipodi:namedview
     id="base"
     pagecolor="#ffffff"
     bordercolor="#666666"
     borderopacity="1.0"
     inkscape:pageopacity="0.0"
     inkscape:pageshadow="2"
     inkscape:zoom="0.49497475"
     inkscape:cx="225.32684"
     inkscape:cy="702.89023"
     inkscape:document-units="mm"
     inkscape:current-layer="layer1"
     showgrid="false"
     inkscape:window-width="788"
     inkscape:window-height="415"
     inkscape:window-x="989"
     inkscape:window-y="200"
     inkscape:window-maximized="1" />
  <metadata
     id="metadata10902">
    <rdf:RDF>
      <cc:Work
         rdf:about="">
        <dc:format>image/svg+xml</dc:format>
        <dc:type
           rdf:resource="http://purl.org/dc/dcmitype/StillImage" />
        <dc:title></dc:title>
      </cc:Work>
    </rdf:RDF>
  </metadata>
  <g
     inkscape:label="Layer 1"
     inkscape:groupmode="layer"
     id="layer1">
    <image
       y="86.845238"
       x="15.572618"
       id="image13688"
       xlink:href="data:image/png;base64,iVBORw0KGgoAAAANSUhEUgAAAKgAAADICAYAAAB8v6ruAAAABmJLR0QA/wD/AP+gvaeTAAAlMUlE QVR42u2dXWxUV7bn//vYZZddmCpnYg/GKcZuCV9Bmb4YCBJlOgIsIRyHB8gDxMkDihL3TYhAGkD9 MXIPijU93QM8ECWddCVq8dA4eCTgARwjJILVgytXDmCrseFeR4p9qZTNLaJ2FU7hj7LPnod9zqkP 18epqvNV5VoSiiD1dfb+7bXXWnuttQmlFAUpiFGFKwxBQYwsxYUhWFkyvfiY+kOPMbXwALNLAczx zzC18ED6/1PzDzDHB5J+hpmzoqZ0k/T3Ms6KNSWNAICa0k0o46ywmdahsngdyfb3ksIWn78yNf+A Ti08wPjsAKYXH2N89o7mv6GyeB1spnWoKdmESpMdNSWbUFO6CWbOKgveAqB5JNOLj+mjYC/GZwfw /eydlJpQTxG1cL25GTWlDNp4GrcAaJ5AeX/mS0zNP8jpZzFzVvysbCfWlDTiZ2U7UV+2kxQAzUGZ 4wP0YbAX7sBnOQ9lMqksXldwknINzAH/p3AHPjP09p2N1JRuwobyV7HR0oaa0k2kAGiOgHnrH3+E O/BpXj7fRksbNlgYlLHOUwFQg4OZrxqzsngdmirewJbV7UnDUQVADSrjs3foZd9RTC8+zqvnMnNW tL34e2ypaJcVZioAajCZ4wP0su8oHgZ78+7ZNlra8Hr1J7JjoAVADSZT8w/oxSdv5Z3WBIAtFe14 vfqTtE+W8irM9DB4nQ7NdGM2xl6rLF7HgsElm1Bf9gtixN/uDnxKe3/8bV4uvPqynXhn7bWMxj1v AJ2a/zv9+Iedsl670fIaNljasKXiTUPAetl3lN6f6c5LOGtKN+GdtdfS2tYjJW+ymdLxch8Gr+Oy 7z2c/Y9GOjX/d6rjb6YXn7yVt3CaOSveXPPXjOHMK0BrSn+e9numFx/ji8k23J+5qDmkc3yAfjG5 Py+dIRHOd9ZeyzqjKW8ANXNW4rS+nwkouOx7T1NIRTjz+Zjy9epPUFO6KWsTKq8Sllte+A3MnDWj 92oJ6WXf0byHc6OlTRH7Pu+SRR4Gr9OLT9qzGNxPVXWe1HCI6st2oqZkE+b4AKYWHugK/+vVn8gO wq9IQAGg98dfU3fgT4aD9P5MN73sO5r151QWr8MGSxtqSlkW+6PgV4bI/1QazrwFFAC+mGyj47P/ zzCQTs0/oB//8ErWUG6peANzfADuwGeGcrDUgDOvAZ3jA/RjT3PGpzLMC+1FTenPiTK/5ZWMfkt9 2U44rf+Cn5XtxP2Zbrj9nxnupEktOPMaUIAF77+YbMt46zNzVpz6byNZxfEAoPfH39J0U+W2VLRj zwu/QhlnhTvwGQb8nxoyo0lNOPMeUAC4P3ORXva9l/H768t+gXfW9mY8AeOzd+gXk/vTBrOyeB3c gU9x6x9/NGyqndpwrghAAeCy7z16f+Zixu/fU/kbtLzwm4wm4uMfXqFyvOr6sp1o+y+/R03pJozP 3oGRU+3MnBVvrfkr6st2qn5UvCIAZYHxNkzN/z3jz/jgpTtp26NyvHYzZxXjhsKhgbFT7SqL1+HN NX9VJAhfADRC0kkmiSc1pT/HBy/dSWtSzv7HP9NkWtBpfQ8tL/wKZs6Kh8FeXPYdNXTmfLaJH5nI iml9U1P6c9L24h+yARy3/vG/Za/m+zPdCeEUkyjaXvw9AKD3x9/i4pO3DA3nlop2fPDS34iWcAIr sC7+4pN2+jB4PaP3puPVJ9Ke9WU78RbL8MH04mNcfPKWoY890y3RUFpWXPOw16s/zSjzCWCJJb0/ /jrl6x4Ge+PC6bS+J26RmJp/gI89rxgaTnFL1wvOFQmombOS16v+lHFSyf2Zi5jjA0m3naGZL+Ms jE+kLf3+TDc+/uEVQ2/peyp/hQ9e+hvRyhkqABqlGbKzRwf8ic/5xa4fEQsCH7z0N2ypaJfgVOI8 Xr2x2YQPXvobWl74tSGqDVZsf9AtFW9mlD8KAENJYqrfR3SQE5N2xVaFvT/+1rBwmjmrYbRmAVBB 2l78A6kv+0Xa75tefIxUpSKxcH49bdzOIFsq2vGB3ThaM1JWfPOwTIP4bS/+AU7r+3En9OvpP9IN 5a9KcBp1W484vTJkpWsBUEEySSrZUvEmXq/+NNHESoNqRDjry3aipfJXmhxVZiuFxg1gTtM7a3vT gjTFOTkBQKfmH8Aote5mzoqNljYxEcXwYBYABUB9bkq/c4H63KgOBfDfiyjGK0owUcHjkW0J/pKs dhdSaVpHN1ra8DDYq1tIqaZ0E5zWf4nbOS4XZGVu8aEA5Yd+BzpxKenLHtmW8K/Vixiv4Jf9P6f1 fbS9+AdZEy6Gnh4Fv0o7EcS2QFA5T7BmlsBfQjFVTlMunPqyndhoeRUbLG05pS0LgIpw3j4I6h+R /ZaJCh63a0JRoGZaEjLHB+j3s3cwPjuA8bk7cU+SbAsEO/6TwwY/B9vC8q/4pnoJt9cuYa5oea/3 n5XtzElNWQA0QzjjgVq59o1kDlLaMjX/gM7xAXz/+P+g7vt/Rd1M6o/2r1qN8j23UGbObQ1ZADRC +IEjlHr7sh+0aifIxlMg1U5F4KATlygd+zzthUOqneB2XS0AmhdwDndSOuZSdvCyBJVOXKL86Fkg 6Mn8NzR0gNvclbeQrghAqbeP8gNH1BvEdEANBSgd7wH/nSsrMCOF23VVMW1eAFRrCXro0s0WIKR+ mIfYGkEa3gWpbQVM0Y4K9fZR6r0B6u1T/rdY7Cjae2vZdxYAzQHhb7bQTJ2ibGFFyWoGp8+t/vc5 ToJznCoAmlNwDh6nqWKd+SRFbXcBiz2vIM3bbCY6cWlFwQkA/HBn3j1TXgJK/SOUH/rdioITAKi3 D9TnzqstMe8Apf4Ryt8+qIlTZMjnf3gmr54nvwANeigdPL5i4QSYQ0YnLuWNFs0bJ2mla84oyaOw U+5r0FCA8qNnKK9RrDMnJOgBr/CpmV6ijwYNeij1j4TPnkPPgNhYZZUz+Wf4R4GgB3rEOHNFuL23 QGyNhXQ7uUJ9bkofntEkcF0QdljA7b2V04BqtsXTiUuU7z9QgFNDof4R8MOdOe1kaAOokMFeEB0g HXOBjrlyFlJNAOXHXAUHRkfhhzvB9x+g1NuXc6BqYoMu9W6jSqWWGWrwIhJCJFl4ZmzHzWQFqXYC Ngf7/ezvK7cunvpHWAgoF8VkBal0gFQ1AzYHUGIFSRVdWP78LEoR9LCow9MBw9rhpFp4NlsjYFoN YrED5etAKh26xVRVB5QfPUPp6Nmc4pJUO0HWd7C8TvUWLuhED+h4T26YP8JiRZUTpLZVs/CV+oD2 H6C55Llz2z8CqTuk3ReGAqBjn4Mfza0zdFLtBNncpTqoqjtJdHo0dwbd1qgtnADTTI6TIA0dOQUo 9bkhVMiqquHUBTQUoDnlvcc6PFouDhXNCRXnF2rWeqkOaC5pz4JkKEGPqtlT6vZm0jvcYrGDW98B VDaCVDlZQu/o2Zw8vye1rUzLLgSYg+W9YRjninpvgNQdzj1A6XN9Yp+k2gniOLUsJERqW0Gqncim u4guz1N3CNz2j8J/F8d3ooc5VzrHmJVohpFI1LVBtYbAYgfXfIHViSeKV5qsINvPA6bllyjoGm2Y jj9WxNYIrqkrIbhFbXfBbe6K+zyaQqqSs6SuDarhyuYcp1C095YsZ4PYGsE5TsJIEne3SbKYop6n oYM9e7VTvwdQSRmpq0E1AFRIKQNxnExLi5CGjrgTSp/qpEXjTDDnOMmOI+WIxQ5u11XdtKlaykg1 QLWoLiR1h8DtviJ/EmPfv7lLl0UVd7xiIh6sS0n6sVHS0AFu9xXAYtf2AULPcgtQVe1PkxXc9o+Y 45CFtogbmNcD0KBnmUdOtp/P6rk03/JzbYunfpVioCYr05oKnfhwjlPRv/vpgOZ8xpoVpO5QxrtC 1Djtuqr9yVjOAKrCRBNbI4pe+zb7yYsUiz1qEvU4XKC+gWiwEnjtGU2wuNMUAI0YcP+I4vmfpNrJ bCsVHIAoLRoKaB4jjdSgXEOH4s8YG0dV5RlyyUmiY58rP8C7rqrnncZoUfg11KJCnigAFlZqeFeV r1Ed0pwBNOhRtGmXFqsfiNaiUVuuyqK29tRjLI0LaCigaCdjUu3UbkAtdinIr2UsVDomVFF75jKk ygGa5Q0aywbS1giu+YKmgyHFHSO3XbUBFY5X1daesZDmSv6pIoBSn5suXX9ZOefCZGVwanwiQqqc UoRACy0qtQPXSHtGTfzmLn2PRjUBNBSg/HAn5fsPKJr6xW0/r/1JiAipoFm0sEPFRaCl9owaZ4WV gBqnhxkDSicuMa2pxtUuOmaXk7pDgMnK8i3VBtTbp4v2lMRkZcrAwJI2oNQ/Qvn+A5RXqQ8niTnZ 0QXS+kOqx0OpfwQIekBq9+maKifmyOY+oOJ2frNF1bzJdOvOVRmU9YIDoeJz0oke9l1GWJDrlXGY 1Dg9lAUo9fapsp0bVoSQE51UL1McPjczJ3SytaMAVcqkCv6gMaAsrslimxrVv4iaRfdJqzvEdgo1 nlvoa0rqDxviWRV7RhVMooSASqEjFetN4gk/1GmIeiFS2wpY7Ko4S9Tbx1L9DGDOAModTQt2taKe fFxAxV6eulQNhgKGKWrj6g6rEm6iEz2GCZTTp25Fu5rwCrc54uLCOXhc31EzCKSk7pDyGjToAQ16 DJGnSf0j4O8cUXjxXVI0HhoFKPX26Q9nLKRPday0tNhBKh2Kmjn8dy4WmNcbTm8f1LoVhR84oliV ZxSghrtKLxQAf/uAro4TqTusKKDU26e79qQTPVDV8RWViwKaVAJUjSRjxVbk4DHdFg+p3adYfij1 j7Czfr1CS6EAG8vBY9p8V/8B8KNnsoI03Flk4Rk0FYudBaktdmAhAPhHkzZ3pWMu8P4R7ZNITFbA 5gjDlQ2gEz26aU/qHwEdPK59tcDoWfBP3VSYt7RbNUr9QanPzTx3jSa96LVv44MWCoB6b4jGdtz3 ZlNqnPHkTvSwmvPIf5+bwdLU2LLXF9U0gJgrlv0733+AVQZoDedED/ihzsRbutAWnFQ5pT5WCHrA D3cqZ94I5/6ktjUtSMMNbIMeutS7TZMB43ZflRcDDHrAf+eK24WY29ylaagmFq5g9wmEHvUnfH1x /VZY2s9JoFJvH+AfZQ0mtJJQAPzg8fiQmawgtfvCTckSPffNFkW1Lqk7DK7pQ9naNOwkWexEi61T WqlyxGIHt7kLRa99y7LAI2w34eYKzWK1pKo5aqIWx+8lff3i+L0o7aq1c0S9fYh30EJqW8E1X0DR gTHWTTrFMafSSeN04lJajW+5WHhUn+hMkiNM1nCjrAhQqc8NrU67SN2hqGhCUU1D6sGtrJE0mbjg RFmaGotrHmQtoiMU6aUL9n5R211wzRfSO3uPLShUAlL/CINURl/RaEBr96k7yQoc70mg7r7KFpTQ 5Zcf7lRUm4Ye9UdrSYs9qgyEs61N/jvNFdJrqPdGFBSL4/cw86c3MPOnN/DTXzrA+yeVmXhRawoL SazpKmq7y0yLDKMHqphSovmRAtIYQNVNFFZyJZIqJ2uWtfsqiK0RdMyFpZstWQf2F8fv4dm5/Qh2 n8BPf+mIgpTUtkrbfCoNWly/NQyObyBqbJ9fOR0N6yftSe1ZWZM9cETSmqS2Fdzuq4p1FiG2RtWc Un7weNJ4afRRp8lK1IRUjc8mVU5we29JlYr87QMZa9P5b7qXabRImEjtPinlsLhumzxAgx6gJGzb LwxdW6Yx6dwMgt0nsDB0LX2tOeaSzBxpd2m+oHgiipr2M//tMXafQUpAVfwhageoI21U6u1LW5s+ v3Ias1+dWz54/knMf9MtLmDp3xOFkqS1vmEXA8jbF06ABjD3tSvpb5CrSal/BPzNFvDDnSC1+5bZ 57mgXCQJehL6EVycH6KKN6+VByuBWncY/B15tun8N91Jtde8+8vw51c3S4MpQhgrRTUNYfvzqVuC Jp72jAcpnZtJ/IJQgEUwbrYANofqYEpisav6HYla58RNtyP1KsCkcd0LcZxkjcZM1qSePu+fjKs5 Y18jAkxq90maORGgJU37JS0XqXmSaU9pohIE/wEWcF+6/jKwENAOzGjlBa0lLqDceoW9NpNV05Of qO91nETR3lvhBImYlSp3S5XgEneXUCDKEYr6WnF7H3NJkZHQo35Z3npJ0/5ln0v9I+D7D4D6BlAk 2ts6nOfrMYfxM+otdqLkj9G9alC4XIE0dLDju4jaqtId7ZLGSya8f1Ly6NmVNjdAzBXLtGhx/Va2 vYtmhQC0HAfIvOeXKD94OmL1sO2cDneCe/kj3cCU5lHFCgBS1ZwGoICitdq6aM8EA8w1XwBKrCxn Udiqyw+eRtmrJ1K+X3SWSG2rlGkfC6i0vUfEPnn/ZFJNzdnWYtXbLph3h3cuOuYCP3ichYx2XTVE cR0sdnUSdZJcCZ4YUCXtDYPVXbMGWucBn5ulnoUCKN3Rjor3v0wa31y2TQc9KGnaL3nzkRqVevuk MVwYup7wM0t3tKPiaLe0rdOnbnaEK2p9g9QtSWNX6VD+M5OwxiWhWrGYKLEp/1CKrFrHSXCOU6xQ b8yFopoGVLz/Jcx7fpnwbSJspLZ1mTdv2rCLwRr0AKbwvZ8L95dv78X1W1Hx/pcoe/WE9B7RRuZ2 XTXu3Z0q7IbJdmsuOdkKHH2arLpfMpVULHZm21U2Stu+eXcHVp+4FtcJEmGLrJsXt3Xxv/x3Lul4 cGlqLErrcra1KD94GqveZgtCsjMnelg6msF7yhOluz9XO5Ne6Z0C0OxXsRpbQjYintrMfnUuyi6U 7NPpEfDDneAsFqx624VVb7uizt2j7MlyO6h/BMX1W6U/AFhTBkHTSHaruQLmPb9ExdHusJ06ehb8 6Flw6zsS3vMUmxWluyhsrqXqalKcQvsRYmukWeUDlhvAuI+Qua9dEmDz33SDs61FyZb9KN3xBoi5 gl3wFQqAHz0LYrKi2HESq09cw8LQNcx97ZIANW3YxbToRA/I5kaseptFBuhET9Qkhh71o6Rpf3gr F15DfQMg9YfBxdiYdG4GoUf90h9RVp+4ljJBJeeEdXBJmhcaTlhOIPzAEZpNOhvnOKVtkm4KCfyv XXFPaoi5AqXOdglUgDksdMzFGr4Ku8ncbRfm3d1YfeIaiLkCS73bUNR2Nzxe/QdANnexBJa5GdC5 mahTJRYbbV22lS+O38PC0LWE4Sjznl9Gefl6ytL//a+KfA4zaQ4nBTR1b6ZsHZwIZ0H3gZ0aS3iM SOdmMPf1n/Hs3H7M3XaBzs2Et33/qFhKK9mnEthVznCeaNADLDyTtncp5S7oYZ65z73MzlwYuial 3SWLlS6O380/7ZkCTkDOddzZVjRWGiMGCgBLT/495WtEUOfd3Sh1tsO8m9mHRKzRMa0OF/sB4W2+ 7hBzjiI1Y9DDunY894B7OSLRem4G8998iXl3d/Jz9wjhp6fyik+5l/mmBFTXK6oVFt4vf5JFUBfu X4N5TwdKmvaDa77A4pQDR9g23fAuSG0r+MHjLCNnvAfc3lus8G/sc/ATl1jtlHg5QwZghn/7ZE6N dVKRqT2BFFs89bmpLv2ZDAX1JJ5fOS0lL5Mq4UIxQMpeJ7X7WAyzZHU4oQOIuh58aWqMmQ9f/zlt OPNN0rkKPakGNUorRL2luH4ritb8U/gfxCB/7T7Q4c6oXYZ6+1C099ayo8mimgZY/0e/VEqyOHHX WOEjrSQN7ZkcUIUv5DKCEPOq5CvbthZcZQ2K67eBs9WgaM0/xT/6DHpAn3vidmCm/hEs3WwRA9BA tZOdpAkxTtOGXeHj0LkZBqsMYOUU6eWCcGlGdBICyn+nUDfloAeoMsbglDTtB2dbi6UnDISiNSwr npgrEgIg9pKXOp9Mj4JY7EDJapCqZpC1rSzZVkjjI7WtLKwmvmf8EuhzoaOdWNsjQEvM1mXALk2N YXHiHvjpSfD+SckckJNxlRNKIs3Dn/iAhgKUjiu0vRuo35OYzBE30ThCK9LgYyD0jBWgVTWzUFm1 E1yclt38cCc7/rNZWYDe52YNGuoOAbWtIAm+gx+/xL4DiII26kTKiJKFT0JqW9NufxMXUH70rGIl vPTpAAiME6iP0ojBx6ygTdBusNgZiFXyfi+d6GGxzd1XmGdvsoLsvoKlmy3gbA4pHsr7J0Fnf2J1 TBY7UOWMApf6R9jv8bmlqlHp90R8jjHGL/OwYyaZWcVxNAlV8rIEcdA17aUkFsv53KChQFTvdFLV LAvExfF74P2T4P1TWBy/y06FZn9CxdFuEHMF69c05pKuCJcSboVb8viBI8xZMllBZ3/CT3/pYMF/ wZxg9u5aFNdtBVdZw7QzEAZX6GMP741wZz+xMsHmYM6GDuBm1SQjg9+77KiTHzyuuHNEbI0s2J1t ZWcoEF7Bgt0XCaDoTYuTSCzrljkp8YTZfcxJWXry73GdFWKuiM5Aun0QZPv58NWJo2fZdwlagj51 g46ekfo5LY7fw09/SZEYUb8VxfXbULSmIbEZ4h9hC9A/AiompQj2sFjYlup5sxn/pZstGZtt3K6r CROT5QGqVQMxi51tdXJW7PRocnPDYg/fsVkpv3PJwtA1KeQjJy5ZfvB0OJ0u4rxd+p0xgAJCUoh/ ROqKtzB0LarOPpWYNuxC6Y72pDYpfeoGphm0sbeSiPDC1ijYyQ5m0phWp6d9QwG2E46ezaqRmNB2 J3NA1dCeSgtrPtYsSzMm0pbiditXIhM1+MFjINXNIHWHJM1buqM9CtClqTEpKsAPd7IdRNjC5267 MPf1n9P6zavedsl3nIIeAdYBBq8MbZesZiylgkhn7liCeIZOkhHjnpF9K6udithcoX/rTwvOkqb9 Epx0zCXBSedm8Pzq/4zbYST0b/2Y/6Yb5QdPg9vcxWxIP3N2zLs7wE9PZtRFRJZY7CCWQ9KCoP4R Zos/dSe0HzU7zs7AwZIAVSzume0qE0Muta2q1OMU18kP4RTXb5WqLKm3D/S5R7oA4fmV01iaGkvY XUQEsPzgaXCOk6wAbvt5wGSVPlMOpMRckVXYidnjjeFbnL19YVg1DgFmYh4wQJWMe2Y4iFLOpcrV i2JZcKrki6KaBljaz0kDS5+6JVty/ptuWfX0C0OsbKSkaT+47efBDxyRnCa5kJY625Uda7Fh7eYu qXO0ZrAyx5bCYpe9zXPiqtI8KcRkBWnoYB0y9t5iK1yj0lrzno6UcK5628W0YygAOnpWOqJbHL+X shNJpDy/cppBaLKCiNu9IJGOV1yYzBUo3fGGqoqB29wVbmcpXEWupqQbphIAVf9u9EgwOccp1jV5 c5cu9d7ikaccOPmhTlaibLJK9UzpyuxX55g5IBx1RibhJIO01NmetEGZorBWCb1E43SzVhTQNBOQ uEyozmrF7r6SsEBMS4nq4BEPTrATNdLQIf3WlI29Ek3K3IzU1pHUHQoH4ZNAWlTToE+JR4Ju1ooB muZ9npyS19alBFQM1htAIh0ggGnVKDiHO5ldHFGdmU2TWVH70rkZEMdJ1n4nwu4rP3ga5QdPSydN YhGeniKBqvCd9ukoxGJNH9hgzQgiu4JEntzQiZ6orsK8f1JWZzpRitbEz4xamhrD7FfnmGff1MXM h6YuSUOXNO03ZNYScZwE8fYpdttHOpfpcpo+qQGz82Ozm6gwEZG1RXK3djEslsxulCo3BVucHzLY 9ZMJV7NyxY/pbPMc0dBJoQpdKaje74sOJ4lApbpyJl2Z/eocC3NZ7CD1h413R6oWYy1zm+dgsRPN 2iNO638HfEIJelibw5iM73S2dlFSed50bkYKVZEqJ0i53fjlNQpflSn3eTkAIBtPafKMul6tnUxC AfDfHlt2D6iclt3xRE55RuhRv5Q1RRo6pBMeo46P0nd8yt3mGaDVTqJF9w9DljALV7iQzV3LQl+y 7M4E2jLd+CW3/Tzo6BnNL3vVc97kbPOSk8Q5ThFSd1j9lahRzFWu8IPHQeoOxw1/le5oj+qpFE+K ali1J41xAJNpUc62Fpb2c9GvEU6aqMIXkmkFUkafO5kGoADANX2oepzSSLYWP3gs5VV/pTvasfrE NZQfPB03aUMKKcVovngJx2LrxYqj3XH/P8tJOAz+9kHjQBoKqDZncjTz8uZhoQBNeEOuQlLUdlf3 ltb84DHWkibN67HFykuxfEOENvY25EhHqKimAcV122SXDvPDncBCQLqcTE+hYy5VowypsuwTdrdT M3lZ7453dPQsu2BLqCdSBHiF74IX70HSG9Kl3m2qZjqlAjRhoJ7bfl41m5Qfc+m2hdGJHvBjLik3 06jCNV8A9d7Q1SSiEz26l40nPUnitp8n3Pbzyn+r0FxLFzgHj4Fr6jJUKW9csdhZDungMd0g5UfP qP8lKU6oUh51krrDqkCqtRYV4SQNHYbvAy+NfW0ru9tp8JjmMVJNtCcrnc6yga0IqVDjrZhoqEUl OIUE3VwSTsgA4+8c0S5GKuTBavFsKV8jezXbGomSTgWgjRYV4YTJKrVNVOV7YnI8FROTldnLAPjb BzWBlI59rvq8CCG1lKUfXJofqiykKq9UCU4A3M4L6jpFQY/Ua0mNyeQcJ6WGEapuvWJXaDXFYpet LNJOt5MgVRAiNeyrKDgdpwx3Y1va497QwerXhaNZtTQc/+0x9eFkOQ/Zd1hOCqmCthxVWItGwkmq nYa6ZSQb4V7+iNVG+UdUOW2iYy5V8yWIrZF1nU7hGGUNqLCiFUvTo/4R1plDCQ0w3CnBCZOVTWq+ iBB6EsdMUUiDHtbVUC04GzrA7b1F0m2/mFVGvZJperwCmTz84LGoq7a57ec1OVLVMgNJqmtXGFLV zAaLHdyuq+A2d5FM3p4doNVOoqhXn+kgCXZZZEA7ciJVF5Wco4STFpEaKEGahePED3eqssiI4yTb 0tPsaKcYoIDCd3EGPexKl3Tfc/tgdHJLxFaYl2KxR8UQxb74mUBGJ3qgZD9YgNn9QjVo2lu64oAq fT0z9faFbchUr33qjjsxXJzkY1VlIRD9Xw2ENHREH9cKIah0IKX+EdljLXvh7LoKbtdVkk57G3UB VeGqQzmrmo6eBX/7wDKTQNOtXRSxGFDjokDSFBNJCQXA32yRdXYvmQZKiMkqttAh2Wzn6gCqkkR5 47EDe7MlfjDZZM3vrT0W0Cpn3LwCfvAYG7sE9jx96lbMuSJ1h1H02rcgDR1EjWfUtHFDukInerD0 1C3djUnHLyXVDlxEmxpNf6eO2e+c4xSWvDeWwRY5dhLE4hWNSpwUCcog3Y7JeQUoAMFxkmEnWez6 BeT1LHSz2ME1dMSHThy70TMgFrty3ZKFvIZ0Au4ZL0DDA5qGJtFb9KrIJA3vJt85gp5l/euzGmt2 eQTR4tnyA1ChI5tuYIrHg3pt9SYrSL1Gz2+xq76t5x2gmk2OgYVbr02rRq0jJPkBqI6ZSpGZWHRa x95TTLPl3VjnjQ1qCNG5ll2TOiuNoyR5AaiuzSBi09N0hFSLcJfSgfiVAai3T7F0vbS/O/g4+u86 tZik/hHoeVOLYQGVLlHVWfjRM8qeK8uV5zFZRDrUkauVwJwXgBpJ6EQPO4vWMB65LANd68uxvH15 C6cigGptk6ScMPGsXoMucfEWgmaLI+gBP3BE1fqkvAAUgCG7dNAxF5auv8xsU7UmME79juqACseX S73bNG9lqcc8KwNow7vGXH6hAPjRM6qBGrcaVbjHXlUw9YpalKzW/CuVAbTuMDF0r6MIUPnBY8pd p5KgAlLJMmo60QO+/4C+YOooCdsvZgAB1arzhSIPnuUFttTbx+y/eJ9d7cyqFSP19gl/bhjKvhSe S1OfQzlApRV/ifKjZ3Vv26c2rKm6znG7r8o/Fgx6pCuylcw6UnycalvBNV/IbUAlUP0jlE70AD53 zmhVAOxMu8rJHILKRpByexS01D8CeG+kTvo1WdktcjZHlHMhbf/CuAi3XeTGQnacZIVw+QDoMmB9 bkqfDgDBHwBxYgqSU8I1X9A01U5TQONC6x+hDNZRBq0Rr6kpiCRFB8aQbRlxuqJryQexNRLYGhH5 xNTnpnSSOQm5ZMfmu5DaVs3hBHTWoKkkFx2uvBSTFUV7b0GpWve8ARQAC18N/Q5q3ThSkBQitEvU qgYp9wAVhL/ZQguOlUZisrK2lbX7ZHVBLgAKAKEAXbr+cl4nRmguFjuIxc6y5MVwmIyLDQqAJhDq c1O+/0ABLLngla8DLC+xiRbzdktWGwrAvAIUUPcGvJwVk1XoSbWPtQnXwdsuACpKYauPnsBqJ+si rYOHrYXkXka9yUq4pg8LZII17lKy1WEBUOUmRrH++DkN5/bzeQtmTgMKACTHbowrwLnSALU1EtLQ kas/P/PnrnauGDhzGlBAuOvRwFdqq7Ao2SVYK2lB5pwXHyPU20cTZbYrJiYruyyifB2LHqh1L2eK 36BVT04jifEb2KZaYbWthNS2UsUrHIVmXKTuUHwogh7KT1zS5OJVAOCaPlxxcAJ5oEEBKFcPJQa8 G96VD0MoQPkxl6qg6pHJXgBUYaH+EZpphw1S7QzXJGV6CqMSqHrUARUANQKkwhbOre9Q9hQm6KH8 6FlF0gOJrRHC9ecFQPNGkuSPElsjUO0EWduqesse6h+hdLgz4zKWApz5CmgEqJEdj0mlQ5fJpj43 pQ/PpAVqAc6VAKjBhPrclH7nStlPidQdBtf0YQHOAqA6SdBDqbcPdLIvfG+RmMG+vsNw3QL1lv8P v/hADnXhZUIAAAAZdEVYdFNvZnR3YXJlAEFkb2JlIEltYWdlUmVhZHlxyWU8AAAAEnRFWHRFWElG Ok9yaWVudGF0aW9uADGEWOzvAAAAAElFTkSuQmCC "
       preserveAspectRatio="none"
       height="52.916668"
       width="44.450001" />
  </g>
</svg>
